<?xml version="1.0" standalone="no"?>
<!DOCTYPE svg PUBLIC "-//W3C//DTD SVG 20010904//EN"
 "http://www.w3.org/TR/2001/REC-SVG-20010904/DTD/svg10.dtd">
<svg version="1.0" xmlns="http://www.w3.org/2000/svg"
 width="2048.000000pt" height="1367.000000pt" viewBox="0 0 2048.000000 1367.000000"
 preserveAspectRatio="xMidYMid meet">

<g transform="translate(0.000000,1367.000000) scale(0.100000,-0.100000)"
fill="#000000" stroke="none">
<path d="M0 6835 l0 -6835 1085 0 1085 0 -17 35 c-19 40 -14 50 19 42 15 -4
28 -19 37 -42 18 -51 54 -49 81 5 13 26 27 40 40 40 27 0 34 -17 16 -42 -9
-12 -16 -26 -16 -30 0 -5 88 -8 195 -8 l195 0 0 30 c0 34 22 49 45 30 9 -8 13
-21 9 -36 -6 -23 -5 -24 57 -24 64 0 74 15 14 22 -22 2 -30 8 -30 23 0 19 7
20 100 20 l100 0 0 -25 c0 -20 -5 -25 -28 -26 -15 -1 -30 -4 -34 -8 -3 -3 33
-6 81 -6 86 0 87 0 123 36 33 33 40 36 81 31 43 -5 62 -18 62 -44 0 -7 -20
-13 -52 -16 -39 -2 -31 -4 30 -5 77 -2 82 -1 67 14 -30 30 -12 39 85 42 74 2
96 0 111 -14 10 -9 15 -22 12 -30 -3 -8 1 -14 10 -14 9 0 17 10 19 23 3 21 7
22 88 22 79 0 86 -2 95 -22 13 -29 37 -29 50 0 9 19 19 22 70 25 52 2 67 -1
98 -23 37 -25 41 -25 222 -25 152 0 185 3 185 14 0 25 33 29 52 7 19 -24 38
-27 38 -6 0 8 12 18 26 21 38 10 171 -1 188 -15 17 -14 36 -7 36 14 0 18 30
28 46 14 8 -6 14 -20 14 -30 0 -25 36 -25 63 -2 25 23 100 22 125 0 25 -23
186 -24 228 -2 38 19 94 19 122 -1 18 -12 35 -14 75 -9 29 4 81 6 117 5 95 -2
238 -3 290 -2 25 0 3336 -1 7358 -4 l7312 -4 0 168 c0 104 -4 172 -11 179 -5
5 -13 71 -16 146 -5 121 -4 137 11 143 14 6 16 44 16 403 l-1 396 -31 -78
c-45 -111 -56 -106 -124 57 -30 71 -52 136 -49 144 9 25 30 6 48 -44 55 -152
70 -185 78 -177 5 5 25 53 44 107 l35 97 0 390 c0 366 -1 390 -17 387 -14 -3
-18 -14 -18 -53 0 -39 -4 -50 -17 -53 -16 -3 -18 8 -18 131 l0 135 35 6 35 7
0 273 0 273 -147 6 c-82 4 -764 7 -1518 7 -753 0 -1498 2 -1655 5 -157 3 -928
7 -1715 10 -786 4 -1474 8 -1528 10 -54 2 -231 5 -393 7 -162 1 -294 4 -294 5
0 1 26 15 57 29 31 15 71 43 89 62 l32 35 -22 22 c-11 12 -24 20 -28 18 -5 -2
-8 3 -8 11 0 9 -6 13 -14 10 -8 -3 -16 3 -19 15 -3 14 -10 19 -21 15 -9 -3
-13 -10 -10 -15 3 -5 -2 -6 -11 -3 -10 4 -14 14 -10 28 2 11 -3 5 -12 -14 -14
-29 -17 -32 -20 -15 -10 46 -65 200 -80 219 -14 20 -15 18 -9 -28 3 -26 12
-67 20 -90 22 -64 16 -81 -27 -82 -20 -1 -55 -11 -79 -23 -24 -12 -44 -17 -46
-11 -4 12 -32 -14 -32 -30 0 -6 -4 -8 -10 -5 -16 10 -25 -46 -9 -56 12 -8 11
-12 -5 -24 -23 -17 -39 -10 -31 14 5 18 -23 91 -49 124 -8 11 -12 25 -10 32 3
7 -3 18 -13 23 -17 9 -18 6 -18 -34 1 -25 -2 -47 -7 -50 -4 -3 -4 -13 1 -23 8
-14 4 -20 -27 -31 -58 -21 -76 -22 -90 -3 -13 17 -14 17 -8 -2 5 -16 1 -21
-15 -22 -27 -2 -33 -9 -23 -25 5 -7 7 -21 6 -30 -3 -14 4 -17 35 -14 21 2 47
7 57 12 11 4 38 8 60 8 53 1 54 -20 4 -46 -21 -11 -38 -26 -38 -34 0 -9 -11
-14 -30 -14 -16 0 -29 -3 -29 -7 5 -31 -4 -43 -38 -49 -28 -5 -39 -3 -48 9 -7
9 -14 15 -16 13 -10 -10 -68 -13 -80 -5 -14 9 -14 9 23 13 6 0 15 14 19 29 4
16 13 34 19 42 9 11 7 18 -9 34 -12 12 -21 26 -21 31 0 15 -65 12 -110 -6 -23
-9 -43 -14 -46 -11 -9 9 46 57 66 57 27 0 35 19 14 34 -17 13 -17 15 -1 39 9
15 17 34 17 42 0 14 -5 13 -30 -5 -16 -12 -34 -19 -39 -16 -8 6 -23 -21 -50
-90 -13 -34 -61 -55 -61 -27 0 11 -4 11 -17 -3 -13 -13 -18 -14 -21 -4 -3 7 3
19 13 26 15 11 22 11 34 1 14 -10 14 -10 4 3 -11 14 -13 21 -13 36 0 4 -6 2
-13 -5 -10 -7 -17 -7 -24 0 -8 8 -18 7 -34 -4 -13 -8 -41 -15 -61 -16 -36 -1
-36 -1 -34 34 3 29 0 35 -16 35 -10 0 -28 -9 -40 -20 -12 -11 -32 -20 -45 -20
-13 0 -26 -7 -30 -16 -4 -12 -8 -13 -14 -3 -4 8 -1 18 9 27 9 7 11 11 4 7 -8
-4 -11 1 -9 14 2 11 5 23 8 26 3 2 2 32 -2 66 -7 57 -18 92 -54 174 -8 17 -21
56 -30 88 -11 41 -29 72 -57 103 -22 24 -43 42 -46 39 -3 -3 4 -15 15 -28 26
-28 46 -67 39 -74 -3 -3 -37 25 -76 63 -38 37 -76 71 -82 75 -20 10 -276 21
-282 11 -2 -4 14 -13 37 -19 53 -14 121 -73 148 -126 18 -33 20 -51 14 -102
-7 -66 -35 -125 -60 -125 -8 0 -15 -6 -15 -14 0 -10 -10 -13 -37 -11 -21 1
-46 -1 -55 -6 -9 -5 -30 -10 -45 -12 -35 -3 -73 -27 -73 -47 0 -8 -6 -23 -13
-32 -11 -14 -20 -15 -57 -7 -51 11 -63 25 -49 52 10 18 9 18 -15 2 -32 -21
-45 -13 -44 26 1 16 -4 35 -10 41 -7 7 -12 8 -12 3 0 -6 -35 -9 -82 -7 -67 3
-92 0 -132 -17 -27 -12 -51 -19 -54 -17 -2 3 -13 1 -23 -4 -13 -7 -20 -6 -26
3 -9 15 -86 31 -97 20 -4 -4 -26 -6 -50 -4 -24 1 -47 -2 -51 -8 -3 -6 1 -11
10 -11 9 0 14 -4 11 -8 -5 -9 -34 -9 -261 3 -112 6 -136 10 -172 31 -48 28
-63 30 -63 10 0 -20 -23 -26 -35 -10 -8 11 -17 11 -50 -1 -67 -24 -78 -21 -73
22 3 21 8 45 12 54 6 13 2 17 -18 17 -15 0 -26 -6 -26 -14 0 -8 -9 -14 -19
-14 -11 0 -22 -9 -26 -19 -8 -25 -68 -33 -194 -27 -58 3 -102 0 -118 -7 -19
-8 -29 -8 -45 2 -16 10 -22 10 -28 0 -9 -14 -94 -6 -136 13 -29 13 -57 67 -52
100 2 18 14 27 53 39 89 30 162 42 212 35 320 -42 402 -41 468 4 22 15 55 31
73 35 18 4 36 13 39 21 4 11 23 14 77 12 75 -2 165 8 206 23 16 5 56 4 108 -4
l84 -12 13 -39 c8 -21 18 -43 24 -49 13 -13 78 0 85 18 3 9 0 12 -10 8 -7 -3
-14 -1 -14 4 0 5 26 22 58 38 42 21 52 30 38 33 -19 4 -46 25 -46 36 0 3 20
11 45 17 90 23 41 41 -106 38 -67 -1 -104 3 -114 11 -12 10 -24 9 -60 -5 -25
-9 -52 -15 -59 -12 -7 3 -35 -5 -62 -18 -39 -18 -64 -22 -124 -21 -54 1 -85
-3 -112 -16 -48 -23 -75 -23 -83 2 -11 35 -35 50 -81 50 -39 0 -44 -3 -44 -22
0 -17 -3 -19 -9 -9 -6 10 -10 10 -13 1 -2 -7 -31 -14 -73 -16 -38 -3 -71 -7
-74 -9 -2 -3 -10 0 -18 6 -8 7 -18 8 -25 2 -7 -5 -42 -8 -78 -7 -36 1 -69 -1
-74 -4 -9 -5 -56 -6 -73 -2 -5 1 -21 3 -38 4 -16 1 -47 6 -68 10 -23 5 -55 4
-83 -3 -34 -9 -55 -9 -80 -1 -30 10 -37 9 -69 -15 -19 -15 -35 -34 -35 -41 0
-8 -4 -14 -9 -14 -15 0 -28 -53 -20 -80 11 -38 10 -60 -2 -60 -6 0 -13 9 -16
20 -8 30 -16 25 -42 -30 -14 -28 -30 -50 -37 -50 -18 0 -25 -53 -8 -63 8 -4
14 -15 14 -22 0 -8 3 -15 8 -15 4 0 15 -12 23 -26 14 -24 15 -30 1 -56 -11
-23 -19 -28 -36 -24 -11 3 -27 6 -34 6 -7 0 -11 4 -7 9 3 6 -4 9 -15 8 -11 -1
-20 -7 -20 -13 0 -8 -8 -10 -22 -6 -16 4 -20 1 -16 -9 3 -8 -1 -20 -8 -27 -14
-13 -19 -10 -78 59 -18 21 -30 125 -16 134 5 3 5 17 -1 32 -7 19 -6 36 5 64 8
20 12 39 9 42 -5 5 9 60 27 102 4 11 14 36 21 55 7 19 22 46 33 59 l21 24 -22
-12 c-42 -22 -84 -97 -138 -251 -46 -132 -55 -178 -56 -312 -1 -60 -4 -109 -8
-109 -37 -8 -64 -3 -68 12 -3 9 -15 20 -26 24 -34 11 -75 11 -71 0 2 -5 -7
-15 -21 -22 -14 -6 -23 -8 -21 -4 3 4 -14 8 -37 8 -22 1 -54 8 -70 14 -25 11
-31 10 -41 -4 -8 -10 -17 -13 -26 -7 -9 6 -18 3 -27 -8 -12 -16 -12 -16 -13 0
0 9 7 24 16 32 14 15 12 16 -18 17 -26 0 -29 2 -13 8 17 7 17 8 -7 13 -15 3
-29 0 -32 -6 -3 -7 -5 -7 -5 2 -1 6 -7 12 -15 12 -8 0 -12 8 -9 23 2 12 -1 28
-6 36 -8 12 -12 12 -26 -2 -19 -19 -35 -14 -35 11 0 11 -8 18 -20 18 -11 0
-20 -4 -20 -8 0 -4 -7 -4 -17 -1 -9 4 -14 2 -10 -3 3 -6 -9 -27 -28 -48 -30
-34 -37 -37 -76 -34 l-44 4 33 8 c17 5 32 13 32 18 0 6 6 6 14 -1 24 -20 28 6
4 28 -26 24 -46 27 -54 7 -3 -9 -12 -12 -21 -9 -13 5 -12 8 6 15 12 4 20 12
17 17 -6 10 49 61 65 61 5 0 9 4 9 10 0 14 -43 6 -48 -8 -2 -7 -10 -12 -19
-12 -8 0 -27 -9 -43 -20 -15 -11 -31 -16 -35 -12 -5 4 -6 0 -2 -9 4 -13 1 -16
-13 -12 -12 3 -19 -1 -22 -12 -3 -15 -6 -14 -28 5 -24 21 -51 23 -121 8 -9 -2
-14 9 -15 34 -1 26 3 38 12 38 17 0 17 2 1 33 -13 24 -14 24 -25 6 -7 -10 -12
-28 -12 -39 0 -12 -5 -18 -10 -15 -6 4 -8 11 -5 16 4 5 4 9 1 9 -3 0 -15 -20
-27 -45 -12 -25 -25 -42 -30 -39 -14 8 -11 26 4 18 9 -6 9 -4 0 7 -17 18 -16
29 2 29 8 0 15 7 15 15 0 8 -7 15 -15 15 -8 0 -15 5 -15 10 0 6 6 10 14 10 8
0 17 7 20 16 5 12 2 15 -10 10 -10 -4 -22 1 -31 11 -13 17 -14 16 -9 -7 7 -33
-3 -45 -39 -47 -16 0 -24 1 -17 4 21 8 13 21 -10 15 -17 -4 -20 -2 -15 12 4
10 7 22 7 27 0 5 8 9 17 9 14 0 14 3 5 12 -10 10 -15 10 -21 -1 -5 -8 -16 -11
-30 -6 -14 4 -23 2 -27 -9 -3 -8 -12 -17 -19 -20 -10 -3 -13 5 -12 34 1 22 -2
39 -8 39 -5 0 -8 -8 -7 -17 3 -14 1 -14 -12 -3 -11 9 -14 21 -10 35 6 20 6 20
-13 3 -25 -22 -32 -22 -30 3 1 12 7 18 14 16 7 -3 13 -1 13 4 0 6 -6 10 -14
10 -22 0 -38 24 -24 38 8 8 8 12 1 12 -11 0 -30 -19 -32 -32 -4 -22 -14 -37
-22 -32 -5 3 -9 0 -9 -5 0 -6 -5 -11 -11 -11 -6 0 -9 7 -5 15 3 8 3 22 0 30
-7 17 -45 21 -42 4 2 -6 -3 -14 -10 -16 -7 -3 -10 1 -6 11 4 12 0 14 -19 10
-33 -5 -42 10 -20 32 17 17 17 18 0 11 -10 -4 -23 -7 -28 -7 -6 0 -7 -5 -3
-11 4 -7 -3 -6 -17 2 -22 12 -22 13 -5 17 12 3 15 6 7 11 -8 6 -8 17 4 44 8
20 13 37 10 37 -2 0 0 11 5 25 7 19 6 25 -3 25 -22 0 -53 -52 -67 -110 -19
-79 -39 -115 -53 -101 -9 9 -9 14 0 19 6 4 10 22 9 40 -1 17 1 32 5 32 4 0 10
11 13 25 8 32 -3 54 -16 31 -10 -19 -28 -21 -28 -4 0 6 3 8 7 5 9 -10 32 25
32 48 l0 20 -10 -20 c-7 -15 -8 -10 -4 20 2 22 2 34 -1 28 -3 -7 -13 -13 -22
-12 -11 0 -12 2 -5 6 7 2 13 10 13 16 0 17 -46 68 -54 60 -9 -10 -7 15 3 35
43 80 60 154 24 103 -8 -12 -18 -19 -22 -17 -4 3 -8 -5 -8 -17 -1 -12 -10 -27
-19 -34 -9 -6 -17 -26 -18 -42 0 -17 -6 -33 -13 -36 -7 -2 -13 -9 -13 -15 0
-6 5 -8 11 -4 8 4 8 1 1 -12 -5 -11 -12 -26 -15 -34 -10 -29 -7 146 4 200 6
30 21 74 34 97 16 29 18 40 8 36 -8 -3 -32 -43 -54 -88 -37 -79 -39 -86 -39
-182 0 -88 17 -195 37 -226 4 -6 5 -35 4 -64 -5 -108 66 -270 159 -364 l55
-56 -85 3 c-47 2 -647 4 -1335 5 -687 1 -1780 5 -2428 9 -998 6 -1180 9 -1189
21 -9 13 -5 1013 7 1669 3 146 7 756 10 1355 3 600 7 1295 10 1545 3 250 8
883 10 1405 3 523 10 1245 15 1605 5 360 12 1112 15 1670 3 558 7 1070 9 1138
l3 122 -1094 0 -1093 0 0 -6835z m7030 -3019 c0 -11 -19 -15 -25 -6 -3 5 1 10
9 10 9 0 16 -2 16 -4z m2155 -346 c-5 -8 -11 -8 -17 -2 -6 6 -7 16 -3 22 5 8
11 8 17 2 6 -6 7 -16 3 -22z m-1765 -10 c0 -5 -5 -10 -11 -10 -5 0 -7 5 -4 10
3 6 8 10 11 10 2 0 4 -4 4 -10z m4370 6 c0 -2 -8 -10 -17 -17 -16 -13 -17 -12
-4 4 13 16 21 21 21 13z m-1846 -142 c9 -8 16 -18 16 -22 0 -17 -37 -57 -55
-60 -35 -5 -109 -36 -125 -50 -8 -8 -16 -10 -17 -5 -4 11 -73 2 -116 -16 -35
-14 -95 -5 -127 19 -24 18 -24 20 -10 62 22 63 60 80 175 75 72 -3 200 3 237
11 4 1 14 -5 22 -14z m1476 -23 c0 -6 -4 -13 -10 -16 -5 -3 -10 1 -10 9 0 9 5
16 10 16 6 0 10 -4 10 -9z m1700 -11 c0 -5 -5 -10 -11 -10 -5 0 -7 5 -4 10 3
6 8 10 11 10 2 0 4 -4 4 -10z m-1919 -17 c1 -10 0 -22 -1 -28 -10 -47 -10 -47
15 -41 13 3 27 1 30 -4 7 -12 -33 -49 -52 -50 -7 0 -13 -4 -13 -9 0 -4 -26
-11 -57 -14 -55 -6 -128 -31 -221 -77 -23 -11 -64 -25 -90 -31 -62 -13 -65
-13 -77 -21 -5 -3 -39 -4 -75 -2 -68 5 -83 5 -140 3 -79 -4 -178 6 -225 22
-93 31 -120 44 -133 62 -7 9 -22 17 -32 17 -24 0 -38 46 -21 63 15 15 33 -10
25 -36 -5 -15 0 -16 33 -11 58 9 68 17 47 39 -17 17 -17 17 5 10 35 -11 68
-13 82 -4 14 8 39 1 39 -12 0 -5 -8 -9 -17 -9 -16 -1 -15 -2 2 -12 20 -12 145
-13 217 -2 20 3 58 21 84 40 47 33 147 64 161 50 4 -4 -6 -18 -22 -32 l-30
-25 34 5 c32 6 107 37 174 73 16 8 38 12 50 9 27 -7 137 13 137 25 0 17 20 9
21 -8 0 -14 2 -13 9 5 11 26 39 30 41 5z m-693 -4 c40 -1 75 -5 77 -10 3 -4
14 -5 25 -2 11 3 20 0 20 -6 0 -18 -31 -25 -51 -13 -12 8 -20 8 -24 2 -4 -6
-11 -8 -16 -4 -6 3 -17 3 -27 -1 -14 -5 -14 -7 -2 -15 12 -8 10 -10 -7 -10
-12 0 -31 -10 -43 -22 -13 -15 -23 -19 -30 -12 -7 7 -2 15 15 24 14 7 25 17
25 22 0 15 -15 8 -48 -22 -32 -29 -91 -43 -76 -18 5 8 2 9 -9 5 -10 -3 -17 -2
-17 3 0 6 -7 10 -15 10 -8 0 -15 4 -15 9 0 5 15 8 33 6 17 -3 50 2 72 10 22 8
33 15 25 16 -8 0 -24 2 -34 3 -11 0 -21 6 -23 13 -4 12 31 22 57 17 8 -2 48
-4 88 -5z m857 2 c-3 -5 3 -12 12 -14 14 -4 14 -5 -3 -6 -12 0 -24 6 -28 14
-3 9 0 15 10 15 8 0 13 -4 9 -9z m-1191 -36 c-4 -8 -11 -15 -16 -15 -6 0 -5 6
2 15 7 8 14 15 16 15 2 0 1 -7 -2 -15z m1176 -5 c0 -5 -4 -10 -9 -10 -6 0 -13
5 -16 10 -3 6 1 10 9 10 9 0 16 -4 16 -10z m13 -56 c-4 -26 -2 -34 7 -29 8 5
11 -1 8 -21 -3 -30 -28 -46 -28 -19 0 12 -5 15 -16 11 -9 -3 -22 -6 -30 -6 -8
0 -14 -9 -14 -19 0 -12 -9 -21 -25 -25 -14 -4 -31 -18 -37 -31 -6 -13 -14 -23
-17 -21 -9 6 -7 -47 3 -62 7 -11 4 -11 -11 -1 -11 6 -25 20 -32 31 -9 15 -8
22 9 40 11 12 20 28 20 35 0 7 4 13 10 13 5 0 7 6 4 13 -6 17 54 77 77 77 10
0 20 -8 22 -17 3 -13 5 -11 6 6 1 22 27 59 42 60 4 1 5 -15 2 -35z m-3363 22
c0 -11 -19 -15 -25 -6 -3 5 1 10 9 10 9 0 16 -2 16 -4z m4814 -11 c-4 -8 -15
-15 -25 -15 -27 0 -24 18 4 23 12 2 23 5 24 6 1 0 0 -6 -3 -14z m-2304 -11 c0
-2 -7 -4 -15 -4 -8 0 -15 4 -15 10 0 5 7 7 15 4 8 -4 15 -8 15 -10z m-2160
-45 c0 -5 -7 -9 -15 -9 -9 0 -12 6 -9 15 6 15 24 11 24 -6z m394 -58 c23 -25
7 -34 -47 -26 -33 5 -43 11 -44 26 -2 16 5 19 36 19 25 0 44 -7 55 -19z m65
-8 c0 -25 -1 -26 -9 -8 -7 17 -9 17 -9 3 -1 -10 -5 -18 -11 -18 -13 0 -13 6 0
31 15 28 30 23 29 -8z m1094 -4 c-6 -6 -9 -19 -6 -28 4 -13 3 -14 -5 -1 -10
14 1 40 16 40 3 0 1 -5 -5 -11z m2555 -14 c-3 -3 -13 -2 -22 1 -14 5 -15 9 -4
15 13 8 36 -6 26 -16z m19 -7 c-3 -7 -5 -2 -5 12 0 14 2 19 5 13 2 -7 2 -19 0
-25z m83 16 c0 -8 -5 -12 -10 -9 -6 4 -8 11 -5 16 9 14 15 11 15 -7z m-2630
-4 c0 -5 -5 -10 -11 -10 -5 0 -7 5 -4 10 3 6 8 10 11 10 2 0 4 -4 4 -10z
m2590 -4 c0 -2 -7 -6 -15 -10 -8 -3 -15 -1 -15 4 0 6 7 10 15 10 8 0 15 -2 15
-4z m-3345 -75 c-3 -6 -11 -11 -17 -11 -6 0 -6 6 2 15 14 17 26 13 15 -4z
m965 -152 c0 -6 -4 -7 -10 -4 -5 3 -10 11 -10 16 0 6 5 7 10 4 6 -3 10 -11 10
-16z m2034 -169 c8 -30 17 -63 21 -72 5 -13 3 -18 -8 -18 -8 0 -17 6 -20 13
-3 9 -7 9 -18 0 -11 -9 -14 -6 -15 18 -1 16 3 29 8 29 6 0 8 21 4 53 -3 28 -8
77 -11 107 l-4 55 15 -65 c8 -36 21 -90 28 -120z m38 131 c2 -17 1 -28 -4 -25
-8 5 -12 54 -4 54 2 0 6 -13 8 -29z m-4185 -13 c-3 -8 -6 -5 -6 6 -1 11 2 17
5 13 3 -3 4 -12 1 -19z m2113 2 c0 -25 -22 -26 -43 -2 -14 16 -13 17 14 19 23
2 29 -2 29 -17z m2077 -87 c-3 -10 -5 -4 -5 12 0 17 2 24 5 18 2 -7 2 -21 0
-30z m14 -45 c1 -13 1 -26 0 -30 0 -4 4 -19 9 -33 7 -18 17 -25 35 -25 14 0
25 -4 25 -9 0 -5 3 -16 6 -24 4 -11 -2 -16 -17 -19 -13 -2 -23 -11 -24 -23 -2
-11 -6 -42 -9 -68 -8 -65 0 -89 32 -105 24 -11 28 -11 42 10 8 12 30 60 48
107 39 101 46 111 81 111 28 0 38 -15 71 -105 23 -62 44 -105 52 -105 4 0 8
43 8 95 0 83 2 97 21 114 40 37 159 11 195 -44 42 -64 25 -161 -34 -200 -55
-36 -112 -42 -162 -16 -22 11 -40 16 -40 11 0 -23 -40 -8 -55 20 -13 26 -21
30 -57 30 -34 0 -47 -5 -64 -27 -16 -20 -36 -30 -75 -38 l-54 -10 -2 -114 c-1
-62 -6 -134 -12 -160 -31 -145 -21 -296 21 -326 34 -23 123 -240 112 -270 -10
-24 -34 -17 -52 15 -9 16 -20 30 -23 30 -4 0 -5 -28 -2 -62 l5 -63 -68 -90
c-96 -128 -220 -216 -430 -305 -79 -34 -80 -34 -253 -36 -118 -1 -176 -5 -181
-13 -3 -7 -14 -9 -23 -5 -9 3 -49 -10 -93 -31 -47 -23 -86 -35 -100 -32 -15 2
-24 -1 -24 -8 0 -14 -43 -35 -73 -35 -12 0 -33 -6 -48 -13 -53 -28 -121 -46
-151 -40 -24 5 -34 1 -51 -19 -12 -14 -51 -35 -87 -47 -36 -13 -69 -26 -75
-31 -19 -15 -204 -80 -228 -80 -12 0 -28 -5 -34 -11 -26 -26 -228 -25 -308 1
-18 6 -37 10 -41 9 -26 -5 -44 3 -44 19 0 14 8 18 35 18 19 -1 34 4 32 9 -1 6
-12 10 -24 10 -13 -1 -23 3 -23 8 0 5 -7 7 -15 3 -19 -7 -20 36 -10 341 4 134
-6 152 -26 48 -9 -49 -28 -114 -41 -143 -22 -52 -24 -53 -57 -47 -18 4 -43 15
-54 26 -11 10 -24 19 -29 19 -4 0 -8 8 -9 18 0 10 -3 12 -6 5 -2 -7 -13 -13
-23 -13 -10 0 -20 -4 -22 -10 -2 -5 -17 -6 -39 -1 -55 13 -70 -3 -28 -28 19
-12 42 -21 52 -21 9 0 17 -5 17 -11 0 -8 4 -8 13 -2 6 6 21 9 32 7 11 -3 36
-5 55 -7 43 -3 63 -14 53 -30 -4 -7 -8 -16 -10 -22 -1 -5 -6 -28 -12 -50 -5
-22 -15 -66 -21 -98 l-12 -58 -36 7 c-51 9 -256 88 -272 104 -3 3 -18 6 -34 8
-25 3 -124 51 -221 106 -58 33 -164 107 -190 132 -50 49 -137 109 -200 140
-92 45 -121 66 -250 190 -67 63 -136 123 -155 133 -149 82 -361 171 -406 171
-28 0 -114 51 -136 80 -25 34 -38 38 -39 13 0 -19 -29 63 -29 84 0 7 15 27 34
46 18 18 45 54 60 80 15 25 35 47 44 49 20 4 83 -74 113 -139 22 -48 29 -53
29 -20 0 12 -12 35 -26 50 -14 15 -30 42 -36 60 -6 17 -23 48 -38 67 -66 88
-85 116 -82 127 1 7 -7 17 -18 23 -25 13 -30 73 -5 64 8 -4 15 -12 15 -19 0
-8 8 -11 20 -8 12 3 28 -4 44 -21 13 -15 37 -29 52 -32 16 -3 31 -9 34 -14 8
-13 60 -24 60 -12 0 6 -6 13 -12 16 -7 3 -4 4 7 3 23 -2 45 -20 45 -36 0 -13
39 -39 65 -44 11 -2 30 -8 42 -15 12 -7 27 -12 33 -12 6 0 48 -18 95 -40 47
-22 89 -40 95 -40 6 0 18 -4 28 -9 9 -5 44 -22 77 -37 33 -15 71 -36 84 -46
47 -36 63 18 18 60 -25 23 -155 88 -242 122 -33 13 -69 31 -81 42 -11 10 -24
15 -29 11 -4 -5 -5 0 -2 10 5 13 1 17 -18 17 -15 0 -25 6 -25 14 0 15 -53 32
-68 22 -4 -2 -14 -1 -22 5 -10 5 -11 9 -3 9 7 0 10 7 7 15 -4 8 -11 12 -18 8
-6 -4 -5 1 3 11 8 9 20 15 28 12 7 -3 13 -1 13 4 0 6 12 10 26 10 14 0 23 -4
20 -9 -3 -5 1 -11 9 -14 10 -4 12 -1 8 11 -3 9 -3 14 1 11 4 -4 33 -1 64 6 51
12 57 12 72 -5 8 -9 26 -18 40 -18 37 0 54 -5 67 -22 7 -8 13 -12 13 -7 0 4
15 1 34 -7 19 -8 37 -12 40 -8 3 3 6 0 6 -6 0 -7 11 -12 24 -12 14 0 35 -4 48
-9 37 -14 88 -71 88 -97 0 -15 6 -24 15 -24 8 0 15 -6 15 -12 0 -9 4 -8 10 2
8 13 10 12 10 -2 0 -10 4 -18 10 -18 5 0 6 7 3 17 -4 11 -3 14 5 9 7 -4 12
-15 12 -25 0 -10 8 -21 18 -23 11 -3 19 0 19 8 0 8 -5 14 -10 14 -28 0 9 14
47 17 43 5 50 2 91 -35 8 -7 15 -10 15 -5 0 4 5 0 11 -9 5 -10 15 -18 21 -18
13 0 69 -47 67 -56 -2 -14 28 -24 78 -24 28 0 55 -4 58 -10 3 -5 22 -10 40
-10 25 0 33 -4 29 -14 -3 -8 1 -17 8 -22 7 -4 10 -4 6 1 -9 10 33 44 48 38 6
-2 15 8 18 23 6 22 3 32 -16 46 -19 15 -20 18 -5 18 9 0 17 7 17 15 0 30 17
14 18 -16 1 -37 7 -45 24 -31 7 5 26 8 41 5 20 -4 25 -8 16 -14 -10 -6 -5 -11
15 -18 33 -13 52 -5 35 15 -9 11 -9 14 1 14 10 0 10 3 0 15 -16 19 -7 30 17
20 33 -14 76 -13 90 1 18 18 23 17 52 -7 23 -19 23 -20 5 -35 -18 -14 -18 -15
6 -8 l25 6 -25 -27 c-18 -21 -20 -27 -8 -22 10 3 20 3 22 -2 7 -11 -34 -91
-48 -91 -6 0 -12 -11 -12 -25 -2 -18 3 -25 17 -25 10 0 19 5 19 10 0 6 6 10
14 10 9 0 12 -7 9 -20 -3 -11 -8 -18 -12 -16 -16 10 -31 -13 -35 -52 -4 -37
-2 -42 16 -42 12 0 22 8 25 21 4 12 11 18 20 15 8 -3 23 -6 34 -6 10 0 19 -6
19 -13 0 -15 -54 -49 -64 -40 -3 3 -6 -1 -6 -10 0 -9 7 -17 16 -17 20 0 66
-35 57 -44 -6 -6 19 -10 44 -7 9 1 11 -15 8 -59 -2 -33 1 -60 5 -60 5 0 7 -7
4 -15 -4 -8 -2 -15 4 -15 6 0 13 -13 17 -29 5 -22 13 -30 36 -35 21 -4 29 -11
29 -26 0 -13 7 -20 20 -20 37 0 145 -34 158 -50 11 -13 12 -13 10 4 -3 22 53
48 60 28 2 -7 7 -12 12 -12 13 0 6 83 -7 88 -7 2 -13 -3 -13 -11 0 -19 -96
-21 -104 -1 -3 8 -19 14 -36 14 -18 0 -39 9 -52 22 -13 13 -28 22 -35 20 -6
-1 -14 2 -18 8 -3 5 -15 10 -26 10 -17 0 -19 7 -16 63 2 62 2 62 30 59 16 -2
43 -10 61 -17 39 -17 97 -4 134 29 25 22 29 38 7 30 -8 -3 -29 1 -46 10 -18 9
-38 16 -44 16 -7 0 -18 7 -25 15 -7 8 -22 15 -34 15 -20 1 -20 2 -3 14 15 12
15 15 3 25 -8 7 -12 19 -9 27 3 9 -2 14 -14 14 -10 0 -25 6 -31 12 -10 10 -15
10 -22 -2 -8 -12 -10 -9 -10 11 0 29 5 31 94 28 16 0 34 5 39 10 6 6 24 11 39
11 15 0 28 5 28 11 0 5 4 8 9 4 5 -3 8 -19 6 -35 -2 -17 -1 -30 3 -30 12 0 38
20 27 20 -5 0 -2 5 8 11 9 5 17 15 17 20 0 6 -6 7 -12 3 -8 -5 -7 0 2 11 9 11
10 16 3 11 -20 -11 -15 16 6 42 11 12 26 22 35 22 8 0 18 5 22 11 4 8 9 7 15
-2 7 -12 9 -12 9 0 0 8 7 11 20 8 13 -3 33 9 66 39 25 24 50 42 55 39 4 -3 13
5 20 17 7 13 18 27 25 31 8 4 14 17 14 27 0 11 7 20 15 20 8 0 15 7 15 15 0 8
9 15 20 15 11 0 20 6 20 14 0 20 153 176 172 176 9 0 18 9 21 21 3 12 10 18
16 14 6 -3 9 0 5 8 -3 9 3 17 18 21 13 4 18 9 11 12 -9 4 -9 12 3 30 20 30 38
32 29 3 -5 -15 -4 -19 5 -14 6 4 10 16 7 26 -3 11 -2 19 3 19 4 0 10 10 13 22
l6 23 21 -22 c24 -27 25 -30 3 -37 -10 -3 8 -3 40 0 63 6 87 -5 87 -37 0 -12
7 -19 18 -19 23 0 42 19 42 43 0 16 6 19 35 15 20 -2 35 0 35 7 0 5 4 4 9 -4
7 -11 10 -11 17 0 10 16 44 22 44 8 0 -5 9 -4 20 3 11 7 20 16 20 19 0 8 53
70 85 100 56 53 78 69 95 69 10 0 22 5 26 11 4 8 9 8 17 0 16 -16 27 -13 28 7
0 13 2 14 6 2 4 -8 13 -21 22 -30 13 -13 14 -13 8 3 -7 19 8 24 16 5 4 -10 7
-10 15 0 5 7 26 15 48 19 21 3 42 11 46 17 5 8 11 7 20 -2 6 -6 21 -12 31 -12
15 0 18 -5 13 -25 l-6 -25 69 5 c55 4 70 2 75 -10 3 -8 12 -15 21 -15 8 0 15
-4 15 -10 0 -5 11 -10 25 -10 22 0 25 3 20 28 -6 25 -5 25 8 10 8 -10 22 -18
31 -18 9 0 16 -4 16 -10 0 -5 -9 -10 -20 -10 -13 0 -18 -5 -14 -14 3 -8 12
-12 20 -9 8 3 14 0 14 -6 0 -17 52 -1 73 22 17 20 17 20 17 -1 0 -12 -4 -22
-10 -22 -5 0 -10 -8 -10 -18 0 -10 7 -19 15 -19 8 0 15 4 15 9 0 4 7 8 16 8 8
0 12 -4 9 -10 -3 -5 -2 -10 3 -10 5 0 13 -15 18 -32 8 -32 8 -32 12 15 2 28
-2 55 -9 63 -7 9 -8 14 -1 14 6 0 13 8 15 18 3 9 6 -12 7 -48 3 -112 19 -116
20 -5 1 55 2 125 2 155 1 30 -4 74 -10 98 -18 62 -22 112 -12 112 6 0 11 -10
11 -22z m-117 -13 c3 -8 1 -15 -4 -15 -6 0 -10 7 -10 15 0 8 2 15 4 15 2 0 6
-7 10 -15z m-9802 -19 c5 -7 -3 -13 -20 -16 -27 -5 -27 -6 -32 -105 -4 -80 -8
-100 -20 -100 -12 0 -16 19 -18 103 -3 101 -3 102 -27 102 -14 0 -25 5 -25 10
0 6 9 10 19 10 11 0 23 5 26 11 9 13 87 1 97 -15z m97 -43 c25 -52 36 -49 66
17 18 40 35 52 35 25 0 -8 6 -15 13 -15 6 -1 -1 -12 -18 -25 -16 -14 -25 -25
-20 -25 6 0 2 -5 -7 -11 -15 -8 -18 -24 -18 -79 0 -63 -2 -70 -20 -70 -17 0
-20 7 -20 42 0 28 -11 64 -35 109 -40 78 -42 89 -17 82 10 -2 29 -25 41 -50z
m529 32 c23 -29 82 -185 82 -216 0 -28 -22 -19 -38 14 -12 24 -19 27 -62 27
-38 0 -52 -4 -60 -19 -11 -21 -47 -21 -42 0 2 8 15 46 29 84 57 152 58 153 91
110z m246 15 c37 -14 32 -30 -8 -30 -48 0 -65 -8 -81 -41 -35 -67 -2 -145 65
-155 37 -6 58 -19 47 -30 -12 -12 -86 -5 -111 11 -76 50 -73 224 4 241 14 3
30 7 35 9 17 6 23 5 49 -5z m-1070 -47 c-2 -21 -3 -51 -3 -67 -1 -16 -3 -27
-6 -25 -8 9 -16 100 -10 120 10 31 22 13 19 -28z m1245 37 c22 -11 96 -203 87
-225 -8 -22 -19 -18 -38 15 -14 24 -24 30 -50 30 -45 0 -79 -10 -72 -21 3 -5
0 -9 -6 -9 -6 0 -8 -4 -5 -10 3 -6 -1 -7 -9 -4 -9 3 -16 14 -16 23 0 16 51
155 70 192 12 22 15 22 39 9z m293 -32 c36 -42 46 -104 23 -152 -10 -20 -20
-34 -23 -32 -3 3 -10 -1 -16 -9 -23 -32 -122 -38 -143 -9 -14 19 -20 224 -7
237 4 4 37 4 73 2 59 -4 69 -8 93 -37z m197 18 c11 -9 4 -12 -35 -16 -51 -5
-54 -10 -39 -57 5 -17 15 -23 36 -23 19 0 29 -5 29 -15 0 -11 -11 -15 -35 -15
-42 0 -53 -18 -35 -60 10 -25 18 -30 45 -30 18 0 38 -7 45 -15 11 -13 5 -15
-45 -15 -89 0 -95 9 -95 145 0 61 3 115 7 118 9 10 105 -3 122 -17z m151 -62
c16 -35 32 -64 34 -64 3 0 22 32 41 70 19 39 39 70 43 70 21 -1 36 -23 43 -66
11 -68 11 -176 0 -170 -5 4 -11 0 -14 -6 -7 -21 -27 39 -27 83 0 21 -2 39 -5
39 -9 0 -45 -40 -43 -47 4 -16 -14 -53 -25 -53 -20 0 -31 13 -54 63 -13 26
-27 47 -33 47 -6 0 -10 -26 -10 -59 0 -50 -3 -59 -19 -64 -11 -3 -21 0 -24 7
-5 15 11 214 18 226 13 21 48 -14 75 -76z m363 26 c-3 -11 -9 -20 -14 -20 -5
0 -9 -6 -9 -14 0 -7 -6 -19 -13 -25 -8 -6 -15 -35 -16 -68 -3 -66 0 -60 -26
-65 -17 -3 -21 4 -26 52 -4 35 -17 75 -37 110 -38 66 -39 72 -10 68 15 -2 29
-16 39 -38 9 -19 23 -35 30 -35 8 0 25 20 38 44 21 39 25 42 37 27 6 -9 10
-26 7 -36z m538 40 c25 -14 24 -28 -3 -32 -22 -3 -23 -8 -26 -100 -2 -76 -6
-97 -18 -102 -29 -11 -34 4 -34 100 0 92 -1 95 -25 104 -22 8 -24 12 -13 25
15 17 90 20 119 5z m249 6 c0 -2 3 -11 6 -20 5 -13 -1 -16 -29 -16 -63 0 -61
-43 3 -79 66 -37 80 -92 35 -137 -35 -35 -144 -23 -114 12 8 9 22 13 38 9 39
-8 56 9 52 52 0 7 -23 24 -50 37 -52 27 -61 40 -61 91 0 27 5 35 28 43 27 10
92 16 92 8z m208 -16 c6 -16 3 -25 -8 -26 -5 -1 -14 -2 -20 -3 -6 0 -10 -40
-10 -96 0 -84 -2 -95 -20 -105 -27 -14 -29 -7 -32 105 -3 82 -5 91 -25 100
-13 5 -23 13 -23 18 0 25 130 32 138 7z m179 -2 c21 -16 5 -28 -38 -28 -32 0
-39 -4 -39 -19 0 -34 12 -51 35 -51 12 0 28 -7 35 -15 13 -16 11 -18 -40 -19
-22 -1 -25 -6 -25 -35 0 -35 7 -42 59 -57 16 -5 31 -15 34 -23 7 -20 -126 -11
-139 10 -5 7 -9 58 -9 111 0 53 -3 103 -6 112 -4 11 2 19 17 25 28 10 98 3
116 -11z m192 7 c90 -46 70 -151 -32 -164 -38 -6 -42 -9 -45 -38 -3 -30 -24
-49 -43 -37 -13 7 -11 228 1 240 16 16 88 16 119 -1z m589 -7 c17 -15 15 -22
-10 -33 -21 -9 -23 -18 -26 -99 -2 -63 -7 -93 -18 -103 -25 -25 -33 -4 -36 97
-3 93 -4 95 -31 108 -22 11 -26 17 -17 27 20 24 110 25 138 3z m-1588 -114 c0
-92 -2 -102 -19 -107 -12 -3 -22 1 -25 10 -8 20 -8 208 0 216 3 3 15 1 25 -6
17 -10 19 -25 19 -113z m1679 112 c15 -18 3 -46 -19 -46 -20 0 -32 23 -24 45
8 19 28 19 43 1z m168 -5 c15 -24 8 -31 -26 -25 -60 11 -66 -37 -9 -71 78 -46
97 -97 53 -140 -28 -29 -99 -34 -131 -10 -17 13 -17 14 -1 15 9 0 17 5 17 11
0 7 9 9 23 5 30 -7 60 14 56 39 -2 10 -24 31 -49 45 -60 35 -78 67 -61 108 14
33 26 39 81 41 25 1 39 -5 47 -18z m301 7 c23 -23 13 -38 -24 -38 -48 0 -70
-14 -83 -52 -25 -72 21 -146 83 -132 17 3 28 3 24 -1 -4 -5 0 -14 10 -21 24
-18 9 -27 -42 -27 -83 0 -136 59 -136 152 0 49 3 57 39 92 32 32 46 39 78 39
21 0 44 -5 51 -12z m238 -7 c17 -10 40 -38 50 -61 l20 -42 19 41 c25 56 73 85
127 78 79 -11 118 -58 118 -144 0 -92 -55 -150 -131 -140 -53 7 -85 29 -109
77 -21 41 -40 45 -40 10 0 -28 -56 -78 -95 -86 -42 -8 -100 19 -129 59 -29 40
-29 134 0 174 41 55 112 69 170 34z m-993 -5 c14 -11 17 -30 17 -120 0 -62 -4
-105 -9 -102 -5 4 -12 0 -14 -6 -4 -10 -8 -9 -16 2 -12 17 -15 240 -3 240 4 0
15 -7 25 -14z m1861 -43 c-8 -84 -13 -93 -29 -63 -22 39 -19 85 8 103 12 9 23
16 25 16 1 1 0 -25 -4 -56z m-467 29 c8 -5 13 -41 15 -96 2 -67 7 -91 18 -96
8 -4 27 -14 43 -21 42 -20 27 -34 -37 -34 -39 0 -60 5 -66 15 -6 8 -10 66 -10
128 0 113 4 125 37 104z m4660 -19 c0 -9 -4 -10 -14 -2 -7 6 -13 12 -13 14 0
1 6 2 13 2 8 0 14 -6 14 -14z m-9470 -22 c22 -46 -21 -88 -57 -56 -20 18 -27
65 -13 79 15 15 58 0 70 -23z m10296 15 c24 -18 4 -33 -48 -38 -30 -2 -41 -8
-43 -22 -4 -21 13 -36 41 -36 24 0 53 -29 41 -40 -5 -5 -25 -10 -44 -12 -28
-2 -36 -8 -38 -26 -5 -33 15 -52 53 -52 34 0 61 -22 50 -40 -9 -15 -118 -12
-139 3 -15 11 -19 32 -23 126 -5 138 2 151 81 151 28 0 59 -7 69 -14z m1430
-17 c5 -19 -24 -36 -43 -24 -18 11 -50 -6 -50 -26 0 -12 16 -27 49 -44 56 -28
81 -58 81 -95 0 -30 -7 -41 -40 -63 -27 -18 -105 -23 -130 -7 -13 8 -12 11 5
24 11 9 34 16 50 16 73 1 72 43 0 81 -28 14 -56 37 -64 51 -32 56 21 117 97
110 29 -3 42 -9 45 -23z m-9866 -28 c8 -32 -8 -55 -40 -59 -53 -7 -74 79 -24
97 28 10 56 -7 64 -38z m8595 -20 c18 -39 37 -69 43 -67 5 1 24 29 41 62 26
50 36 59 61 62 30 3 31 2 37 -50 9 -77 10 -184 2 -197 -5 -8 -13 -8 -26 -1
-14 8 -20 23 -22 62 -2 28 -8 53 -13 55 -6 2 -21 -17 -33 -42 -17 -36 -27 -45
-47 -45 -20 0 -30 9 -47 45 -12 25 -26 45 -30 45 -4 0 -8 -19 -8 -43 0 -47
-18 -80 -40 -75 -25 5 -26 13 -17 125 6 82 12 111 24 121 30 22 41 13 75 -57z
m998 54 c14 -17 15 -17 -22 -33 -27 -11 -27 -13 -30 -114 -3 -95 -4 -103 -23
-103 -18 0 -20 8 -25 100 -3 55 -9 106 -13 113 -5 6 -20 12 -34 12 -25 0 -26
0 -8 20 23 26 135 29 155 5z m485 5 c-3 -5 -1 -10 5 -10 21 0 4 -24 -21 -30
-23 -6 -24 -10 -29 -110 -5 -100 -6 -105 -27 -106 -22 -1 -23 2 -23 85 0 109
-6 131 -34 131 -32 0 -39 11 -19 32 13 14 31 18 85 18 44 0 67 -4 63 -10z
m192 -6 c21 -20 7 -32 -42 -36 -33 -2 -41 -7 -43 -25 -3 -17 4 -26 25 -34 70
-28 84 -49 31 -49 -39 0 -58 -15 -58 -46 0 -27 9 -33 55 -39 37 -5 70 -27 58
-39 -4 -3 -37 -6 -73 -6 -48 0 -71 4 -80 15 -7 9 -14 58 -16 124 -4 103 -3
111 18 130 27 26 102 29 125 5z m218 2 c38 -16 55 -42 55 -83 0 -54 -29 -77
-122 -97 -24 -5 -28 -11 -28 -41 0 -37 -10 -48 -33 -39 -11 4 -16 30 -19 117
-4 102 -3 114 15 135 24 26 79 30 132 8z m652 -6 c15 -20 -1 -40 -33 -40 -24
0 -24 -1 -24 -103 0 -110 -9 -134 -42 -116 -16 8 -18 23 -18 114 0 105 0 105
-24 105 -31 0 -40 14 -26 39 9 17 20 19 83 18 51 -1 75 -6 84 -17z m89 -23
c-7 -34 -22 -48 -43 -40 -22 9 -16 59 10 70 31 14 40 6 33 -30z m170 35 c21
-15 24 -41 4 -47 -11 -4 -24 -3 -30 0 -6 3 -19 3 -31 0 -36 -12 -19 -47 36
-76 79 -40 96 -99 44 -148 -33 -30 -110 -37 -152 -14 -19 11 28 43 63 43 48 0
71 23 47 48 -9 9 -36 25 -59 37 -26 12 -49 32 -57 49 -12 26 -12 33 4 62 9 17
27 37 38 42 26 13 77 15 93 4z m339 -6 c33 -24 12 -46 -43 -46 -55 0 -78 -17
-88 -67 -10 -49 12 -99 50 -117 18 -8 42 -13 54 -9 26 6 60 -23 44 -39 -20
-20 -95 -20 -132 -1 -73 38 -98 155 -50 227 41 59 121 85 165 52z m228 0 c66
-28 101 -98 88 -172 -14 -72 -57 -114 -125 -121 -87 -9 -151 57 -150 154 1 61
36 116 88 139 40 17 59 17 99 0z m-3090 -38 c24 -48 42 -48 66 1 17 32 24 38
45 34 l26 -5 -40 -76 c-25 -47 -40 -89 -40 -111 -1 -82 -44 -76 -52 7 -3 31
-17 66 -41 104 -40 62 -44 74 -24 81 25 11 40 1 60 -35z m3415 22 c88 -54 79
-221 -14 -265 -64 -30 -145 -10 -177 44 -41 69 -30 156 25 210 27 26 39 31 82
31 33 0 62 -7 84 -20z m740 4 c34 -23 12 -46 -37 -38 -27 4 -41 2 -50 -10 -18
-21 -2 -40 61 -72 56 -28 72 -54 63 -100 -8 -47 -44 -69 -110 -68 -66 1 -79 8
-62 35 10 16 19 19 50 13 42 -7 67 7 67 37 0 13 -19 28 -59 48 -61 31 -71 44
-71 91 0 61 94 102 148 64z m258 3 c1 -1 4 -11 6 -22 3 -18 -3 -20 -57 -22
-75 -2 -95 -22 -95 -95 0 -42 5 -54 30 -80 27 -26 36 -30 69 -25 29 4 40 1 49
-14 14 -22 6 -28 -50 -35 -118 -15 -196 114 -136 225 31 58 78 84 137 77 25
-4 45 -7 47 -9z m-11894 -14 c22 -20 24 -69 2 -81 -36 -20 -84 11 -84 53 0 43
47 60 82 28z m8000 -100 c-2 -65 -7 -122 -11 -126 -4 -4 -15 -5 -24 -1 -15 5
-17 23 -17 125 l0 119 28 0 27 0 -3 -117z m1533 -13 l0 -125 -25 0 -25 0 -3
114 c-3 117 5 145 37 139 14 -3 16 -22 16 -128z m2865 117 c67 -34 94 -153 50
-225 -34 -56 -112 -77 -173 -47 -46 22 -68 58 -74 119 -10 96 46 166 132 166
22 0 51 -6 65 -13z m307 -7 c61 -37 86 -135 52 -205 -47 -98 -191 -99 -239 -1
-32 67 -24 134 23 185 42 45 111 54 164 21z m-10839 -19 c21 -27 11 -64 -21
-75 -35 -13 -58 0 -72 39 -8 23 -6 30 14 46 26 21 58 18 79 -10z m9173 22 c1
-5 4 -55 8 -113 l6 -105 45 -5 c37 -4 45 -9 45 -25 0 -17 -8 -20 -61 -23 -90
-4 -94 2 -94 148 0 119 2 127 38 129 6 1 13 -2 13 -6z m949 -49 l5 -49 55 0
55 0 3 42 c2 30 9 46 22 53 10 6 21 6 24 2 8 -13 10 -248 2 -260 -12 -19 -33
-14 -40 11 -3 12 -6 39 -6 60 l0 37 -60 0 -60 0 0 -54 c0 -55 -15 -77 -39 -53
-16 16 -15 239 1 255 21 21 33 7 38 -44z m868 -59 c1 -60 7 -114 13 -121 6 -7
32 -14 57 -16 34 -2 47 -7 47 -18 0 -11 -14 -16 -54 -18 -100 -6 -98 -9 -106
124 -6 87 -4 122 6 140 24 45 34 21 37 -91z m510 93 c8 -8 12 -45 12 -100 0
-81 2 -91 25 -113 29 -30 45 -31 76 -6 22 18 24 25 22 114 -1 75 2 98 13 108
25 20 34 -6 34 -99 0 -133 -26 -172 -113 -172 -80 0 -106 45 -107 182 0 91 10
114 38 86z m341 -79 c35 -46 67 -85 71 -87 4 -2 6 32 3 75 -4 63 -2 81 10 91
8 7 18 9 21 4 3 -5 6 -64 8 -133 3 -118 2 -124 -17 -127 -13 -2 -26 7 -37 26
-32 54 -108 152 -118 152 -6 0 -10 -37 -10 -91 0 -81 -2 -90 -17 -87 -16 3
-18 18 -21 122 -3 117 5 152 32 143 6 -2 40 -41 75 -88z m211 -49 c0 -120 -7
-156 -28 -135 -13 13 -15 245 -2 260 24 29 30 2 30 -125z m67 128 c6 -7 27
-57 48 -111 20 -54 41 -95 45 -90 5 4 23 50 40 100 33 95 55 128 65 100 6 -15
-76 -242 -94 -260 -5 -5 -16 -7 -24 -4 -17 7 -117 245 -110 264 6 16 18 17 30
1z m399 -1 c13 -13 -7 -22 -64 -27 -53 -5 -57 -7 -58 -30 -1 -42 6 -50 46 -50
21 0 45 -3 54 -6 32 -12 14 -24 -37 -24 -30 0 -56 -2 -58 -4 -2 -3 -3 -25 -1
-50 l4 -45 61 -3 c37 -2 62 -8 65 -15 3 -10 -18 -13 -82 -13 l-86 0 -1 108
c-1 59 -2 114 -3 122 -1 8 2 23 7 34 8 16 18 18 77 14 38 -2 72 -7 76 -11z
m-8591 -17 c3 -5 -1 -10 -9 -10 -9 0 -16 5 -16 10 0 6 4 10 9 10 6 0 13 -4 16
-10z m-9648 -37 c-3 -10 -5 -4 -5 12 0 17 2 24 5 18 2 -7 2 -21 0 -30z m11666
13 c24 -18 23 -72 -2 -86 -66 -35 -122 29 -71 80 23 23 47 25 73 6z m1544 -22
c15 -23 15 -29 2 -52 -29 -52 -101 -44 -107 12 -7 61 71 91 105 40z m2011 -12
c18 -23 15 -49 -8 -72 -26 -26 -55 -25 -81 1 -23 23 -19 54 13 82 23 19 55 15
76 -11z m1816 -8 c40 -40 -7 -109 -59 -86 -32 15 -41 47 -21 77 19 29 57 33
80 9z m-7010 -21 c-5 -5 -12 -12 -16 -18 -4 -6 -8 -2 -8 8 0 9 7 17 17 17 9 0
12 -3 7 -7z m-4187 -55 c-3 -7 -5 -2 -5 12 0 14 2 19 5 13 2 -7 2 -19 0 -25z
m4223 2 c0 -5 -4 -10 -10 -10 -5 0 -10 5 -10 10 0 6 5 10 10 10 6 0 10 -4 10
-10z m-1170 -69 c0 -6 -4 -13 -10 -16 -5 -3 -10 1 -10 9 0 9 5 16 10 16 6 0
10 -4 10 -9z m70 -34 c11 -4 9 -6 -6 -6 -29 -1 -59 23 -49 39 6 10 12 9 24 -7
9 -11 23 -22 31 -26z m135 23 c3 -5 1 -10 -4 -10 -6 0 -11 5 -11 10 0 6 2 10
4 10 3 0 8 -4 11 -10z m-115 -50 c0 -5 -5 -10 -11 -10 -5 0 -7 5 -4 10 3 6 8
10 11 10 2 0 4 -4 4 -10z m-2795 -60 c-3 -5 -11 -10 -16 -10 -6 0 -7 5 -4 10
3 6 11 10 16 10 6 0 7 -4 4 -10z m1155 -37 c-9 -25 -9 -26 4 -10 14 18 14 18
21 -2 9 -29 -3 -45 -20 -27 -8 8 -20 16 -26 18 -8 3 -6 11 7 26 24 28 26 28
14 -5z m-36 2 c-4 -8 -13 -15 -21 -15 -13 0 -13 3 -3 15 7 8 16 15 21 15 5 0
6 -7 3 -15z m592 -72 c-6 -6 -36 9 -36 18 0 5 9 4 20 -3 10 -7 18 -14 16 -15z
m4 -34 c0 -5 6 -9 13 -9 7 0 12 -14 13 -34 0 -24 -4 -33 -13 -30 -49 15 -47
14 -30 27 15 11 15 15 3 39 -12 23 -12 26 0 21 8 -3 14 -9 14 -14z m-263 -155
c-9 -9 -28 6 -21 18 4 6 10 6 17 -1 6 -6 8 -13 4 -17z m38 -2 c-3 -3 -11 0
-18 7 -9 10 -8 11 6 5 10 -3 15 -9 12 -12z m-251 -17 c3 -8 1 -15 -4 -15 -6 0
-10 7 -10 15 0 8 2 15 4 15 2 0 6 -7 10 -15z m-7143 -51 c21 -13 6 -20 -41
-20 -58 1 -78 -14 -90 -70 -19 -84 32 -158 104 -152 38 4 45 -18 8 -25 -33 -7
-68 0 -99 20 -71 46 -70 218 1 251 21 10 99 7 117 -4z m172 -8 c15 -15 87
-207 87 -231 0 -30 -21 -24 -35 9 -15 35 -17 36 -70 36 -50 0 -56 -3 -65 -25
-9 -24 -29 -32 -43 -19 -5 6 45 155 73 217 15 30 31 34 53 13z m284 -11 c53
-35 67 -142 27 -203 -29 -44 -142 -70 -172 -40 -8 8 -12 54 -12 139 l0 127 66
-4 c39 -2 77 -10 91 -19z m221 9 c42 -9 22 -24 -33 -24 -52 0 -55 -1 -55 -26
0 -41 18 -64 50 -64 46 0 45 -19 -2 -22 -48 -3 -55 -15 -43 -74 6 -33 8 -34
50 -34 24 0 47 -4 50 -10 9 -15 -118 -13 -133 2 -13 13 -18 249 -6 261 6 6 72
1 122 -9z m124 -8 c8 -7 27 -43 43 -79 17 -37 33 -67 37 -67 3 0 23 36 44 80
58 124 81 108 86 -60 2 -97 1 -115 -12 -115 -11 0 -16 17 -20 70 -7 97 -16
106 -46 48 -13 -27 -24 -58 -24 -70 0 -17 -6 -23 -21 -23 -15 0 -27 16 -50 65
-16 36 -34 65 -39 65 -6 0 -10 -17 -10 -37 0 -64 -12 -113 -26 -113 -15 0 -19
101 -8 198 7 54 20 65 46 38z m308 -43 c14 -26 30 -48 35 -50 6 -2 23 22 38
53 28 57 28 57 44 34 14 -20 14 -24 2 -34 -40 -30 -59 -74 -59 -134 0 -46 -4
-61 -16 -66 -23 -9 -26 -4 -31 51 -3 27 -20 77 -39 116 -34 64 -37 91 -11 81
7 -2 23 -25 37 -51z m704 38 c19 -16 21 -33 4 -30 -46 6 -47 4 -50 -108 -3
-100 -4 -108 -23 -108 -19 0 -20 8 -23 108 l-3 108 -29 6 c-32 6 -36 13 -19
30 14 14 124 10 143 -6z m260 3 c25 -25 19 -33 -24 -31 -78 3 -78 -42 0 -88
58 -34 79 -75 59 -118 -19 -42 -93 -62 -140 -37 -28 16 -3 41 28 29 28 -10 50
-3 64 23 16 29 2 54 -42 73 -46 21 -79 58 -79 89 0 32 27 64 58 69 52 8 61 7
76 -9z m-454 -128 c0 -97 -2 -115 -17 -120 -26 -10 -31 10 -31 118 0 126 3
139 29 126 17 -10 19 -22 19 -124z m673 122 c25 -13 21 -28 -7 -28 -35 0 -40
-14 -37 -111 1 -69 -1 -90 -14 -103 -9 -9 -21 -14 -26 -11 -5 4 -9 53 -9 111
0 84 -3 106 -15 109 -8 3 -22 7 -30 10 -9 2 -12 11 -9 20 5 12 20 16 68 14 33
-1 69 -6 79 -11z m190 -7 c24 -19 10 -34 -27 -27 -20 4 -39 1 -50 -7 -17 -12
-17 -17 -5 -43 10 -19 23 -30 41 -32 15 -2 32 -10 38 -18 11 -12 6 -14 -28
-14 -54 0 -72 -28 -50 -76 9 -19 19 -24 48 -24 21 0 43 -7 50 -15 11 -13 4
-15 -53 -15 -94 0 -97 4 -97 155 0 138 -4 131 76 130 23 0 48 -6 57 -14z m214
1 c33 -18 56 -67 48 -103 -8 -36 -38 -57 -96 -67 -40 -7 -44 -10 -47 -39 -3
-29 -27 -51 -41 -37 -3 3 -6 58 -6 122 0 112 1 117 23 128 29 14 89 12 119 -4z
m-2930 -88 c33 -92 40 -134 23 -134 -5 0 -16 16 -24 35 -8 19 -22 35 -31 35
-10 0 -13 4 -8 13 13 20 12 37 -3 72 -17 42 -18 78 -2 73 7 -3 27 -45 45 -94z
m3557 77 c20 -17 12 -31 -19 -31 -28 0 -32 -18 -35 -130 -1 -69 -8 -89 -32
-90 -7 0 -13 114 -10 169 1 30 -18 61 -37 61 -24 0 -18 26 7 34 31 8 110 0
126 -13z m84 7 c18 -18 15 -48 -5 -48 -30 0 -41 13 -32 38 9 25 19 28 37 10z
m183 -9 c15 -24 11 -28 -33 -31 -36 -2 -44 -7 -46 -25 -2 -16 7 -28 38 -48 63
-40 80 -61 80 -99 0 -48 -37 -76 -101 -76 -26 0 -51 4 -54 10 -11 18 17 36 50
32 63 -7 73 48 15 85 -62 39 -80 57 -86 88 -7 41 14 66 62 75 51 8 64 7 75
-11z m-465 -125 c-1 -79 -5 -107 -16 -114 -8 -5 -18 -6 -22 -4 -4 3 -8 61 -8
130 l0 124 24 -15 c24 -16 24 -20 22 -121z m791 117 c15 -24 7 -32 -24 -25
-33 9 -83 -15 -94 -43 -5 -13 -9 -44 -9 -67 0 -56 28 -92 78 -101 20 -3 44
-10 52 -15 13 -9 13 -11 0 -20 -37 -24 -125 1 -154 44 -45 70 -39 164 14 218
23 23 37 28 77 28 36 0 51 -5 60 -19z m240 -1 c50 -30 67 -64 67 -134 0 -96
-46 -146 -133 -146 -70 0 -131 72 -131 155 0 113 106 181 197 125z m303 -8
c58 -42 77 -140 41 -210 -23 -45 -60 -67 -111 -66 -97 3 -158 99 -130 204 11
39 54 94 69 86 3 -2 15 0 26 5 27 11 75 3 105 -19z m722 1 c27 -24 22 -36 -14
-30 -80 12 -90 -37 -18 -83 82 -52 99 -93 60 -142 -24 -31 -70 -41 -121 -28
-58 16 -45 40 21 40 45 0 60 10 60 39 0 20 -8 31 -27 41 -85 43 -110 78 -92
129 16 46 95 67 131 34z m250 -5 c14 -23 9 -28 -34 -28 -28 -1 -52 -8 -68 -21
-22 -19 -25 -29 -25 -86 0 -56 3 -67 24 -84 13 -10 37 -19 55 -19 17 0 39 -7
49 -14 48 -37 -72 -48 -128 -12 -91 59 -79 228 19 272 35 16 95 11 108 -8z
m2528 18 c0 -3 -4 -8 -10 -11 -5 -3 -10 -1 -10 4 0 6 5 11 10 11 6 0 10 -2 10
-4z m-3362 -29 c6 -7 13 -58 14 -112 l3 -99 34 -7 c18 -4 40 -14 49 -23 15
-15 11 -16 -48 -16 -36 0 -70 4 -77 8 -12 8 -27 244 -16 256 10 10 30 7 41 -7z
m-3166 -34 c21 -18 24 -53 6 -71 -28 -28 -88 0 -88 43 0 43 47 60 82 28z
m8732 -8 c60 -18 73 -29 92 -73 47 -113 -23 -216 -147 -217 -86 0 -89 5 -89
150 0 116 1 123 23 138 28 20 59 21 121 2z m304 -23 c2 -7 -16 -12 -50 -14
-47 -3 -53 -6 -56 -26 -5 -31 15 -52 47 -52 15 0 31 -8 39 -20 11 -18 10 -20
-19 -20 -47 0 -69 -16 -69 -51 0 -23 6 -32 27 -40 15 -6 36 -8 46 -5 19 5 60
-27 50 -38 -4 -3 -39 -6 -78 -6 -54 0 -76 4 -86 16 -9 11 -14 55 -16 138 -3
119 -3 123 19 134 51 26 135 17 146 -16z m-7520 -4 c17 -37 1 -68 -35 -68 -50
0 -82 57 -51 88 22 22 71 10 86 -20z m7682 -55 c19 -40 41 -73 47 -73 7 0 27
31 44 69 24 53 37 70 55 74 13 2 28 -1 33 -7 6 -6 13 -56 16 -111 4 -55 8
-105 10 -112 6 -18 -21 -47 -37 -40 -11 4 -17 27 -22 76 -4 39 -11 71 -15 71
-4 0 -18 -23 -31 -51 -40 -85 -72 -84 -109 4 -11 26 -25 47 -31 47 -6 0 -10
-25 -10 -58 0 -66 -16 -97 -44 -86 -16 6 -17 17 -11 128 6 94 11 124 23 134
29 22 46 9 82 -65z m1065 67 c-3 -5 -1 -10 4 -10 24 0 9 -21 -19 -26 l-30 -6
0 -102 c0 -113 -11 -145 -42 -122 -14 10 -18 32 -20 116 l-3 103 -31 11 c-27
9 -30 14 -20 29 9 14 26 17 89 17 50 0 76 -4 72 -10z m289 -6 c11 -29 6 -34
-34 -32 -76 3 -81 -44 -10 -79 90 -45 113 -102 61 -154 -25 -25 -37 -29 -83
-29 -61 0 -92 14 -68 30 8 5 30 10 48 10 43 0 72 16 72 39 0 21 -20 40 -73 66
-81 41 -91 113 -22 153 31 18 102 15 109 -4z m241 -8 c17 -17 13 -21 -30 -28
-18 -3 -20 -13 -25 -118 -5 -111 -6 -115 -27 -116 -20 -1 -23 4 -23 35 -1 58
-10 175 -15 189 -2 6 -16 12 -30 12 -26 0 -33 18 -14 37 17 17 144 9 164 -11z
m212 -2 c11 -11 11 -14 -3 -22 -9 -5 -25 -7 -35 -5 -10 3 -30 2 -44 -1 -20 -5
-25 -13 -25 -36 0 -33 6 -39 47 -42 17 -1 36 -10 42 -20 12 -19 2 -23 -59 -30
-19 -2 -26 -10 -28 -31 -5 -41 14 -57 64 -57 24 0 44 -2 44 -4 0 -2 3 -11 6
-20 5 -14 -5 -16 -69 -16 -47 0 -78 5 -85 13 -6 6 -12 68 -13 136 -3 114 -2
124 17 140 24 19 120 17 141 -5z m-7537 6 c34 -18 44 -48 25 -76 -20 -32 -68
-33 -89 -2 -20 29 -20 47 1 70 18 20 36 23 63 8z m6027 -35 c23 -57 44 -58 75
-3 15 28 30 42 46 43 31 2 28 -17 -14 -86 -26 -42 -38 -75 -43 -116 -5 -49 -9
-58 -26 -58 -17 0 -21 9 -26 55 -5 41 -17 72 -49 123 -35 56 -41 70 -29 78 29
18 47 9 66 -36z m1757 16 c33 -31 41 -72 22 -109 -16 -31 -46 -47 -108 -58
-35 -6 -38 -9 -38 -38 0 -41 -17 -59 -42 -45 -16 9 -18 23 -18 129 0 112 1
120 23 135 33 25 129 16 161 -14z m672 4 c16 -16 8 -25 -21 -25 -38 0 -46 -21
-39 -98 4 -38 4 -86 0 -106 -6 -31 -11 -37 -29 -34 -21 3 -22 9 -27 118 l-5
115 -32 3 c-37 4 -42 15 -14 34 23 16 149 11 167 -7z m100 -7 c-8 -40 -18 -51
-39 -42 -22 8 -22 50 1 63 33 20 45 13 38 -21z m187 13 c5 -5 7 -17 3 -26 -4
-13 -14 -14 -42 -9 -29 5 -40 3 -50 -11 -19 -26 -2 -50 50 -74 87 -38 110 -92
62 -148 -22 -25 -30 -28 -89 -28 -73 0 -87 7 -63 30 11 12 25 14 50 10 27 -5
39 -2 55 14 29 29 18 47 -50 81 -32 17 -63 39 -69 49 -23 43 -2 102 44 122 24
10 85 4 99 -10z m-2155 -100 c4 -129 -1 -153 -31 -149 -21 3 -22 8 -25 122 -3
123 2 140 38 133 12 -2 16 -23 18 -106z m2524 84 c5 -24 4 -25 -51 -25 -31 0
-63 -6 -72 -13 -27 -21 -42 -81 -30 -125 15 -53 43 -76 94 -77 47 0 77 -19 59
-37 -6 -6 -35 -11 -65 -11 -94 0 -147 57 -147 158 0 55 18 93 60 129 26 21 42
26 90 26 54 0 58 -2 62 -25z m259 2 c68 -45 88 -136 47 -217 -18 -36 -33 -49
-69 -64 -61 -24 -109 -16 -157 29 -35 32 -37 36 -40 109 l-4 76 45 45 c41 41
49 45 94 45 35 0 60 -7 84 -23z m307 4 c135 -69 87 -301 -61 -301 -94 0 -147
56 -147 156 0 72 26 119 80 146 45 23 82 23 128 -1z m-1448 -126 l0 -135 -25
0 -25 0 0 129 c0 94 3 131 13 134 35 15 37 9 37 -128z m2239 129 c21 -5 31
-12 31 -25 0 -15 -10 -19 -57 -21 -54 -3 -58 -5 -58 -28 0 -20 12 -31 62 -59
67 -37 89 -69 77 -115 -13 -53 -101 -82 -168 -56 -25 9 -25 11 -10 29 13 15
23 17 46 10 55 -15 106 22 77 57 -7 9 -38 29 -70 44 -31 16 -59 36 -63 45 -13
35 -5 67 23 96 30 29 53 34 110 23z m-621 -127 c3 -129 7 -137 71 -135 31 1
55 -17 45 -34 -8 -13 -139 -9 -152 4 -17 17 -17 274 1 281 28 12 32 -3 35
-116z m917 98 c0 -18 -6 -20 -52 -17 -48 3 -56 1 -84 -28 -29 -29 -31 -35 -27
-87 4 -48 10 -61 38 -86 28 -25 39 -29 76 -24 29 3 47 0 54 -9 28 -33 -99 -48
-150 -17 -65 38 -88 139 -50 217 28 58 62 76 135 73 53 -2 60 -4 60 -22z m535
7 c52 -26 80 -74 80 -139 0 -85 -36 -137 -107 -153 -83 -20 -156 29 -172 114
-15 82 7 140 68 175 44 25 85 26 131 3z m-438 -49 l3 -58 65 0 65 0 3 47 c3
51 27 83 43 57 5 -8 8 -72 7 -144 -3 -122 -4 -130 -23 -130 -18 0 -20 8 -23
63 l-3 62 -69 0 -70 0 0 -59 c0 -45 -4 -60 -16 -65 -9 -4 -18 -5 -19 -4 -2 2
-6 61 -9 131 -7 131 -2 157 30 157 9 0 14 -18 16 -57z m793 24 c60 -60 67
-144 19 -219 -56 -87 -199 -70 -240 28 -19 45 -18 108 3 151 23 49 66 73 132
73 47 0 57 -4 86 -33z m-9067 6 c2 -7 -5 -16 -15 -20 -10 -4 -23 -14 -30 -22
-16 -20 -16 -13 -2 28 11 32 38 40 47 14z m9212 -114 l5 -124 55 -3 c60 -3 85
-17 60 -32 -18 -11 -130 -13 -147 -2 -13 8 -21 261 -9 281 21 33 31 -1 36
-120z m732 4 c3 -99 1 -115 -18 -139 -25 -34 -64 -48 -108 -40 -72 14 -99 73
-94 208 2 68 6 83 20 86 14 3 17 -11 20 -106 2 -91 6 -114 22 -131 19 -21 69
-28 93 -13 22 14 33 64 33 156 0 51 3 96 7 100 16 16 23 -17 25 -121z m187 12
l76 -100 3 103 c2 82 6 102 17 102 15 0 17 -32 20 -242 0 -63 -21 -55 -77 27
-65 95 -97 135 -108 135 -6 0 -10 -43 -10 -99 0 -97 -11 -132 -31 -100 -10 17
-12 263 -2 273 17 16 41 -5 112 -99z m219 -43 c2 -117 0 -142 -12 -142 -18 0
-23 31 -25 161 -2 111 2 133 22 126 8 -2 13 -49 15 -145z m-6557 118 c43 -23
11 -100 -41 -100 -33 0 -52 21 -52 57 0 44 48 66 93 43z m-3879 -56 c-6 -12
-9 -7 -9 16 0 23 3 28 9 16 5 -9 5 -23 0 -32z m5532 24 c21 -30 20 -43 -6 -68
-39 -36 -98 -17 -98 32 0 54 74 79 104 36z m2158 -15 c36 -32 8 -93 -42 -93
-55 0 -78 52 -40 90 24 24 57 26 82 3z m-7449 -2 c4 0 7 -14 7 -31 0 -23 -7
-33 -30 -45 -29 -15 -30 -15 -30 8 0 13 5 28 12 35 9 9 9 12 0 12 -7 0 -12 6
-12 14 0 12 15 14 53 7z m9409 -24 c21 -33 -7 -87 -44 -87 -22 0 -58 34 -58
55 0 28 39 57 68 50 15 -4 30 -12 34 -18z m-9402 -91 c0 -14 -4 -27 -8 -30
-16 -10 -52 6 -52 23 0 24 9 31 37 31 18 0 23 -6 23 -24z m-7869 -461 c63 -33
87 -120 54 -199 -17 -39 -71 -74 -99 -63 -25 10 -19 22 18 40 26 12 37 26 45
54 21 73 11 100 -50 139 -59 37 -32 62 32 29z m273 -1 c10 -27 -3 -34 -60 -34
-57 0 -66 -9 -44 -51 8 -14 21 -19 50 -19 22 0 40 -2 40 -4 0 -2 3 -11 6 -20
5 -12 -5 -15 -48 -18 -51 -3 -53 -4 -56 -34 -4 -40 12 -52 73 -56 38 -2 51 -7
53 -20 3 -16 -5 -18 -70 -18 -44 0 -79 5 -86 12 -13 13 -18 259 -5 271 3 4 37
7 74 7 52 0 68 -4 73 -16z m148 -74 c20 -41 41 -76 45 -77 4 -2 23 31 42 73
58 130 85 110 95 -69 8 -127 1 -156 -28 -116 -11 16 -16 45 -16 86 0 34 -4 64
-8 67 -4 3 -21 -24 -36 -60 -20 -46 -33 -64 -45 -62 -13 2 -57 74 -74 121 -9
26 -20 -6 -26 -80 -5 -60 -9 -78 -21 -78 -13 0 -15 20 -14 120 0 67 3 129 7
139 13 34 42 12 79 -64z m281 22 c16 -29 32 -52 37 -52 5 0 19 19 31 43 33 65
39 70 60 52 16 -16 15 -20 -23 -87 -32 -55 -42 -83 -44 -125 -4 -64 -8 -71
-29 -53 -9 8 -15 29 -15 58 0 34 -10 63 -41 120 -38 69 -45 109 -16 100 6 -3
25 -28 40 -56z m523 31 c9 -13 13 -54 14 -140 0 -123 -7 -147 -35 -123 -12 10
-15 40 -15 140 0 142 6 162 36 123z m234 -2 c15 -28 13 -31 -19 -31 -17 0 -33
-5 -37 -11 -3 -6 -6 -52 -5 -103 2 -99 -4 -126 -24 -126 -19 0 -24 20 -26 122
-2 110 -4 118 -33 118 -31 0 -48 14 -40 33 5 14 21 17 90 17 72 0 85 -3 94
-19z m269 -3 c27 -29 18 -39 -30 -32 -47 8 -74 -8 -59 -36 5 -10 30 -30 55
-44 93 -55 94 -148 2 -170 -35 -8 -103 9 -111 29 -8 21 9 27 57 20 33 -5 46
-3 56 9 21 26 8 50 -41 73 -70 33 -95 83 -67 134 22 42 106 52 138 17z m241
-7 c15 -28 14 -29 -27 -33 l-38 -3 -1 -112 c0 -62 -4 -116 -8 -120 -4 -4 -15
-2 -24 3 -14 9 -17 30 -20 122 l-3 111 -32 3 c-24 2 -33 8 -35 26 -3 21 -1 22
87 22 79 0 92 -2 101 -19z m200 0 c15 -30 14 -31 -39 -31 -32 0 -53 -5 -62
-16 -19 -23 1 -48 41 -52 33 -3 63 -29 54 -44 -3 -5 -25 -8 -50 -8 -24 0 -45
-4 -45 -10 -1 -5 -2 -16 -3 -22 -5 -32 15 -48 57 -48 43 0 67 -13 67 -37 0 -9
-20 -13 -72 -13 -105 0 -108 4 -108 155 0 81 4 125 12 133 7 7 39 12 75 12 51
0 64 -3 73 -19z m237 -26 c53 -61 15 -141 -72 -153 l-50 -7 -5 -44 c-3 -25
-10 -46 -17 -48 -25 -9 -34 37 -31 159 l3 123 35 5 c57 9 112 -5 137 -35z
m738 -18 c-9 -34 -33 -42 -59 -19 -15 13 -30 17 -56 13 l-35 -6 0 -112 c0 -61
-4 -115 -8 -119 -4 -5 -16 -3 -25 2 -14 9 -18 30 -20 118 -2 91 -5 108 -20
112 -49 16 -61 24 -56 39 9 23 179 22 192 -1 10 -18 32 -11 32 11 0 21 23 24
43 5 13 -12 16 -24 12 -43z m-327 31 c14 -14 17 -264 3 -273 -5 -3 -17 2 -25
11 -13 12 -16 40 -16 138 0 136 6 156 38 124z m512 -9 c15 -27 7 -34 -43 -34
-36 0 -42 -3 -45 -23 -3 -16 5 -27 29 -40 115 -63 131 -153 32 -182 -46 -14
-116 5 -121 33 -3 15 5 17 56 17 45 0 61 4 66 16 9 24 -11 51 -47 63 -61 20
-98 82 -75 125 18 34 40 45 90 46 38 0 50 -4 58 -21z m338 -1 c26 -22 13 -38
-32 -38 -58 0 -74 -7 -91 -41 -27 -50 -16 -116 24 -146 9 -7 35 -13 57 -13 42
0 71 -20 59 -40 -3 -5 -33 -10 -65 -10 -49 0 -64 4 -91 27 -85 72 -77 217 14
263 43 21 97 20 125 -2z m230 -4 c52 -25 74 -66 76 -137 1 -78 -23 -125 -76
-145 -132 -50 -251 122 -171 245 34 51 110 68 171 37z m329 -25 c73 -68 70
-207 -6 -252 -39 -23 -108 -22 -148 3 -102 61 -87 250 21 278 44 12 103 -2
133 -29z m153 -110 l5 -104 40 -3 c43 -4 65 -17 65 -38 0 -11 -17 -14 -69 -14
-99 0 -101 3 -101 154 0 67 3 126 7 129 3 4 16 1 27 -7 18 -12 22 -26 26 -117z
m601 121 c21 -12 26 -39 7 -41 -7 -1 -27 0 -44 1 -34 1 -58 -19 -49 -42 4 -9
27 -26 51 -39 56 -28 74 -53 74 -100 0 -46 -26 -70 -82 -76 -57 -6 -98 10 -98
38 0 20 4 21 44 16 85 -12 104 48 25 80 -74 29 -100 94 -58 147 17 21 29 26
65 26 25 0 54 -5 65 -10z m264 -16 c20 -28 10 -34 -51 -34 -50 0 -56 -2 -75
-32 -26 -43 -21 -109 12 -144 17 -18 33 -24 65 -24 47 0 79 -24 53 -41 -8 -5
-36 -9 -64 -9 -90 0 -145 57 -145 150 0 70 24 120 70 143 44 23 115 18 135 -9z
m-4190 -49 c8 -23 6 -30 -13 -46 -38 -30 -82 -1 -82 53 0 59 73 53 95 -7z
m4292 41 c1 -1 3 -18 4 -37 3 -48 15 -59 65 -59 47 0 50 4 56 75 2 24 7 29 23
27 11 -2 22 -6 24 -8 8 -8 0 -259 -9 -268 -18 -18 -40 15 -40 58 0 51 -13 66
-59 66 -49 0 -59 -9 -56 -50 1 -19 0 -42 -3 -52 -6 -24 -39 -23 -52 1 -11 22
-14 244 -3 254 5 6 41 0 50 -7z m-2719 -32 c24 -17 30 -62 10 -82 -20 -20 -65
-14 -82 10 -20 29 -20 52 0 72 20 20 43 20 72 0z m7642 -43 c48 -24 83 -91 77
-150 -9 -80 -70 -132 -160 -135 l-52 -1 2 60 c2 33 -4 94 -13 135 -9 41 -17
81 -17 89 -4 32 99 33 163 2z m-5569 -7 c22 -23 23 -27 8 -52 -29 -54 -109
-32 -109 29 0 51 61 65 101 23z m5859 11 c19 -23 3 -33 -55 -37 -48 -3 -50 -4
-50 -33 0 -27 4 -30 44 -37 25 -4 48 -13 53 -20 12 -19 -20 -38 -65 -38 -38 0
-38 0 -35 -37 l3 -38 57 -5 c62 -6 73 -12 65 -35 -5 -12 -23 -15 -86 -15 -107
0 -111 5 -111 162 0 109 1 118 22 132 31 22 141 22 158 1z m169 -72 c20 -40
41 -73 46 -73 6 0 26 30 45 68 26 50 41 68 59 70 13 2 27 0 32 -5 12 -12 32
-229 25 -259 -4 -15 -14 -24 -26 -24 -22 0 -40 50 -40 113 0 20 -4 37 -9 37
-5 0 -21 -25 -36 -55 -21 -45 -31 -55 -51 -55 -21 0 -29 10 -49 55 -14 30 -29
55 -35 55 -5 0 -10 -21 -10 -47 0 -62 -8 -90 -28 -98 -8 -3 -22 1 -29 8 -12
12 -13 36 -5 136 6 69 15 128 23 137 25 30 51 12 88 -63z m298 50 c16 -43 45
-82 57 -77 8 3 22 23 31 45 18 38 51 59 74 45 13 -8 6 -26 -38 -101 -27 -45
-37 -75 -41 -120 -5 -56 -7 -60 -30 -60 -23 0 -26 5 -32 56 -5 38 -20 78 -48
127 -23 40 -39 79 -36 87 8 21 55 19 63 -2z m852 -2 c13 -23 5 -31 -30 -31
-15 0 -31 -6 -35 -12 -5 -7 -7 -50 -5 -96 3 -111 -4 -142 -34 -142 -31 0 -35
15 -35 135 0 109 -3 115 -51 115 -24 0 -37 29 -18 41 8 5 55 9 106 9 80 0 94
-2 102 -19z m295 4 c23 -17 56 -20 56 -5 0 7 37 10 103 8 94 -3 102 -4 102
-23 0 -15 -8 -21 -35 -25 l-35 -5 -5 -120 -5 -120 -25 0 c-25 0 -25 1 -27 100
-4 138 -6 145 -46 145 -18 0 -39 6 -45 12 -10 10 -17 10 -33 0 -12 -8 -33 -10
-53 -7 -24 5 -38 2 -50 -10 -21 -21 -9 -38 43 -65 103 -52 121 -134 39 -176
-36 -19 -131 -15 -151 5 -21 21 21 43 66 36 42 -8 67 6 67 35 0 12 -17 26 -47
41 -72 33 -93 56 -93 100 0 53 44 89 108 89 26 0 56 -7 66 -15z m-552 0 c10
-4 12 -32 10 -123 -3 -150 -6 -164 -35 -160 -21 3 -22 8 -27 136 -6 148 1 166
52 147z m1022 -1 c23 -9 20 -41 -4 -49 -11 -4 -33 -6 -48 -5 -47 3 -52 1 -52
-29 0 -32 14 -41 65 -41 19 0 37 -5 40 -10 13 -21 -17 -40 -62 -40 l-44 0 3
-37 3 -38 57 -3 c58 -3 83 -18 69 -41 -10 -16 -170 -16 -185 -1 -5 5 -11 68
-14 138 -4 126 -4 130 19 146 24 16 120 23 153 10z m199 -4 c29 0 46 -7 69
-30 27 -28 30 -36 25 -73 -7 -55 -41 -84 -107 -93 -48 -6 -50 -8 -50 -38 0
-39 -22 -71 -42 -63 -18 6 -26 63 -28 189 -1 85 -1 87 27 102 15 9 37 14 48
11 11 -3 37 -5 58 -5z m877 -23 c0 -41 -20 -70 -46 -65 -41 8 -13 98 31 98 10
0 15 -10 15 -33z m-87 4 c16 -16 -11 -41 -44 -41 l-29 0 0 -106 c0 -107 -9
-144 -36 -144 -25 0 -27 11 -32 183 l-2 67 -35 0 c-40 0 -59 25 -33 44 19 14
197 11 211 -3z m295 3 c6 -2 12 -13 12 -24 0 -18 -6 -20 -54 -20 -30 0 -58 -5
-61 -10 -13 -22 7 -48 55 -70 28 -13 56 -31 64 -39 73 -84 -33 -182 -153 -140
-57 20 -30 55 34 43 43 -8 77 11 73 39 -2 16 -21 31 -63 52 -64 32 -89 64 -79
105 15 65 85 91 172 64z m-553 -138 c0 -120 -2 -140 -17 -150 -31 -19 -38 5
-39 143 -1 138 4 155 41 148 12 -2 15 -26 15 -141z m930 130 c12 -8 16 -19 11
-31 -5 -14 -15 -17 -54 -12 -64 7 -99 -12 -108 -59 -17 -92 24 -157 100 -154
62 3 66 2 66 -20 0 -25 -33 -34 -106 -28 -43 4 -61 11 -84 33 -73 70 -61 214
22 265 39 23 124 27 153 6z m273 -16 c63 -46 81 -144 41 -221 -37 -74 -144
-99 -215 -52 -63 41 -85 168 -41 234 47 71 147 89 215 39z m333 -7 c115 -97
55 -293 -91 -293 -140 0 -206 189 -98 286 31 28 43 32 105 33 42 1 57 -4 84
-26z m163 -105 c4 -67 10 -126 12 -130 3 -4 30 -8 60 -8 41 0 56 -4 61 -16 9
-25 -16 -34 -100 -34 -95 0 -92 -5 -96 161 -3 125 4 149 39 149 15 0 18 -16
24 -122z m686 101 c17 -26 -9 -40 -61 -33 -41 6 -50 4 -55 -11 -11 -27 7 -47
69 -78 43 -22 58 -36 67 -61 23 -70 -22 -116 -110 -116 -65 0 -102 19 -82 42
8 11 26 13 65 10 40 -3 56 0 66 12 21 25 6 44 -63 76 -49 23 -67 38 -74 60
-17 47 1 93 43 111 30 13 125 5 135 -12z m278 -3 c24 -24 4 -36 -57 -33 -46 2
-63 -2 -80 -17 -43 -39 -39 -135 7 -181 24 -25 32 -27 80 -22 42 5 54 2 59
-10 15 -37 -85 -54 -151 -24 -37 16 -51 29 -66 63 -41 90 -13 194 62 229 48
22 122 20 146 -5z m102 -45 c0 -26 5 -52 12 -59 7 -7 36 -12 65 -12 58 0 59 2
65 80 2 27 8 36 24 38 21 3 22 -1 26 -135 3 -76 3 -144 0 -151 -2 -7 -14 -12
-26 -10 -18 3 -21 11 -24 66 l-3 62 -64 0 -65 0 0 -54 c0 -56 -17 -83 -45 -72
-12 4 -15 29 -15 144 0 139 7 167 36 155 9 -3 14 -21 14 -52z m474 31 c87 -51
88 -220 2 -273 -40 -24 -122 -25 -156 -2 -39 27 -58 54 -69 100 -20 79 7 150
71 182 49 25 102 22 152 -7z m344 -9 c93 -68 79 -229 -25 -275 -79 -35 -158
-4 -194 76 -36 79 -16 159 51 204 29 20 44 23 88 20 31 -3 64 -13 80 -25z
m164 -30 c1 -27 3 -64 4 -83 1 -19 2 -56 3 -82 l1 -47 58 -6 c82 -9 89 -12 71
-30 -11 -12 -32 -13 -96 -8 l-81 6 -7 138 c-4 76 -4 143 0 148 3 6 15 11 26
11 16 0 19 -8 21 -47z m-5699 16 c20 -27 8 -70 -24 -86 -60 -31 -117 39 -72
89 23 25 78 24 96 -3z m6287 -96 c4 -91 9 -115 24 -132 27 -30 70 -27 95 5 18
23 21 41 21 130 0 97 9 130 30 108 4 -5 10 -51 14 -102 9 -144 -25 -202 -119
-202 -26 0 -45 9 -73 34 l-37 34 -3 107 c-4 117 0 138 25 133 16 -3 19 -19 23
-115z m297 102 c12 -8 50 -52 84 -98 34 -45 66 -84 71 -85 5 -2 7 36 6 90 -3
90 -2 93 20 96 l23 3 -3 -147 c-2 -98 -7 -149 -14 -151 -7 -2 -46 46 -89 107
-43 60 -82 110 -86 110 -5 0 -9 -47 -9 -105 0 -98 -1 -105 -20 -105 -16 0 -20
7 -20 38 0 20 -3 81 -6 134 -9 128 -2 145 43 113z m-4839 -33 c31 -40 0 -92
-54 -92 -63 0 -81 75 -25 105 29 16 60 11 79 -13z m2270 -30 c30 -38 -1 -92
-53 -92 -26 0 -39 6 -51 25 -41 63 57 126 104 67z m2044 -24 c39 -30 15 -98
-33 -98 -25 0 -59 34 -59 59 0 43 57 66 92 39z"/>
<path d="M11109 3183 c-21 -3 -26 -8 -22 -24 6 -22 23 -24 70 -7 63 23 33 42
-48 31z"/>
<path d="M10253 3133 c9 -2 23 -2 30 0 6 3 -1 5 -18 5 -16 0 -22 -2 -12 -5z"/>
<path d="M12663 2493 c-19 -7 -18 -167 1 -182 19 -16 80 9 95 37 27 50 1 123
-50 141 -18 6 -32 11 -33 10 -1 0 -7 -3 -13 -6z"/>
<path d="M12441 2421 c-14 -26 1 -53 25 -44 18 7 18 24 0 48 -13 18 -14 18
-25 -4z"/>
<path d="M12076 2288 c4 -7 -6 -8 -27 -4 -30 5 -31 5 -10 -4 14 -6 30 -8 38
-6 7 3 17 -3 22 -12 9 -15 10 -15 11 4 0 13 -8 24 -20 27 -12 3 -18 1 -14 -5z"/>
<path d="M10936 2176 c3 -8 12 -12 20 -9 17 6 9 23 -11 23 -8 0 -12 -6 -9 -14z"/>
<path d="M11188 2133 c7 -3 16 -2 19 1 4 3 -2 6 -13 5 -11 0 -14 -3 -6 -6z"/>
<path d="M10890 2115 c-8 -9 -8 -15 -2 -15 12 0 26 19 19 26 -2 2 -10 -2 -17
-11z"/>
<path d="M11456 2055 c-3 -8 0 -15 6 -15 6 0 21 -11 34 -25 24 -26 54 -34 54
-14 0 6 -7 9 -15 6 -8 -4 -17 -2 -20 3 -4 6 2 10 12 10 16 1 16 2 -2 12 -11 7
-26 18 -33 25 -18 17 -29 16 -36 -2z"/>
<path d="M10785 2040 c3 -5 8 -10 11 -10 2 0 4 5 4 10 0 6 -5 10 -11 10 -5 0
-7 -4 -4 -10z"/>
<path d="M11265 2030 c-3 -6 1 -7 9 -4 18 7 21 14 7 14 -6 0 -13 -4 -16 -10z"/>
<path d="M10722 1943 c-10 -4 -10 -9 4 -24 12 -13 21 -16 33 -9 20 10 47 -3
37 -19 -4 -7 -1 -9 8 -5 22 8 9 31 -27 45 -18 7 -34 14 -37 15 -3 1 -11 0 -18
-3z"/>
<path d="M10830 1900 c0 -18 4 -29 10 -25 6 3 10 1 10 -4 0 -6 5 -11 11 -11
13 0 2 39 -17 58 -12 11 -14 9 -14 -18z"/>
<path d="M10990 1920 c20 -13 33 -13 25 0 -3 6 -14 10 -23 10 -15 0 -15 -2 -2
-10z"/>
<path d="M10710 1870 c0 -5 5 -10 10 -10 6 0 10 5 10 10 0 6 -4 10 -10 10 -5
0 -10 -4 -10 -10z"/>
<path d="M9670 1730 c0 -5 7 -10 16 -10 8 0 12 5 9 10 -3 6 -10 10 -16 10 -5
0 -9 -4 -9 -10z"/>
<path d="M8495 1680 c-3 -5 2 -10 12 -10 13 0 14 -3 6 -8 -25 -16 10 -42 75
-57 34 -8 79 -26 100 -39 21 -13 64 -30 97 -37 44 -10 71 -24 109 -57 84 -73
205 -205 222 -242 8 -19 21 -46 29 -60 15 -29 84 -72 103 -65 6 2 12 0 12 -5
0 -15 33 -50 47 -50 8 0 31 -11 53 -25 71 -45 44 -4 -67 102 -60 57 -111 103
-114 103 -17 0 -69 60 -64 72 6 14 -9 32 -122 155 -29 31 -53 62 -53 70 0 7
-13 19 -30 28 -16 9 -30 22 -30 30 0 7 -16 19 -35 26 -19 7 -35 19 -35 27 0 8
-9 12 -22 10 -15 -2 -22 -9 -20 -19 1 -9 -5 -22 -13 -29 -13 -11 -24 -7 -66
19 -28 17 -63 31 -78 31 -15 0 -44 9 -66 20 -46 23 -42 23 -50 10z m755 -550
c0 -5 -4 -10 -10 -10 -5 0 -10 5 -10 10 0 6 5 10 10 10 6 0 10 -4 10 -10z"/>
<path d="M9442 1668 c2 -6 10 -14 16 -16 7 -2 10 2 6 12 -7 18 -28 22 -22 4z"/>
<path d="M10530 1670 c0 -5 5 -10 10 -10 6 0 10 5 10 10 0 6 -4 10 -10 10 -5
0 -10 -4 -10 -10z"/>
<path d="M10565 1670 c3 -5 11 -10 16 -10 6 0 7 5 4 10 -3 6 -11 10 -16 10 -6
0 -7 -4 -4 -10z"/>
<path d="M10730 1665 c0 -8 2 -15 4 -15 2 0 6 7 10 15 3 8 1 15 -4 15 -6 0
-10 -7 -10 -15z"/>
<path d="M8153 1618 c15 -37 69 -78 101 -78 20 1 20 1 -3 18 -13 9 -42 34 -64
55 -22 20 -42 37 -44 37 -2 0 3 -15 10 -32z"/>
<path d="M10260 1643 c0 -4 5 -15 10 -23 8 -13 10 -13 10 2 0 9 -4 20 -10 23
-5 3 -10 3 -10 -2z"/>
<path d="M10290 1619 c0 -5 5 -7 10 -4 6 3 10 8 10 11 0 2 -4 4 -10 4 -5 0
-10 -5 -10 -11z"/>
<path d="M9365 1610 c3 -5 8 -10 11 -10 2 0 4 5 4 10 0 6 -5 10 -11 10 -5 0
-7 -4 -4 -10z"/>
<path d="M9390 1604 c0 -8 5 -12 10 -9 6 4 8 11 5 16 -9 14 -15 11 -15 -7z"/>
<path d="M11858 1613 c7 -3 16 -2 19 1 4 3 -2 6 -13 5 -11 0 -14 -3 -6 -6z"/>
<path d="M11920 1609 c0 -4 7 -12 15 -19 12 -10 15 -9 15 5 0 15 2 16 17 4 14
-12 16 -12 11 1 -4 14 -58 23 -58 9z"/>
<path d="M10584 1599 c-3 -5 0 -9 5 -9 6 0 11 -9 11 -20 0 -22 16 -26 40 -10
12 8 11 11 -9 17 -23 6 -23 7 -6 13 17 6 16 8 -8 12 -15 3 -30 1 -33 -3z"/>
<path d="M11800 1600 c-12 -8 -11 -10 7 -10 12 0 25 5 28 10 8 13 -15 13 -35
0z"/>
<path d="M10680 1589 c0 -5 -4 -7 -10 -4 -6 3 -7 -1 -4 -9 9 -22 31 -20 37 4
3 13 0 20 -9 20 -8 0 -14 -5 -14 -11z"/>
<path d="M10735 1590 c3 -5 11 -10 16 -10 6 0 7 5 4 10 -3 6 -11 10 -16 10 -6
0 -7 -4 -4 -10z"/>
<path d="M10260 1570 c0 -5 5 -10 10 -10 6 0 10 5 10 10 0 6 -4 10 -10 10 -5
0 -10 -4 -10 -10z"/>
<path d="M10575 1570 c-3 -5 -1 -10 4 -10 6 0 11 5 11 10 0 6 -2 10 -4 10 -3
0 -8 -4 -11 -10z"/>
<path d="M10730 1559 c0 -16 31 -38 53 -39 9 0 17 5 17 10 0 6 -11 10 -25 10
-16 0 -25 6 -25 15 0 8 -4 15 -10 15 -5 0 -10 -5 -10 -11z"/>
<path d="M10040 1530 c0 -5 4 -10 9 -10 6 0 13 5 16 10 3 6 -1 10 -9 10 -9 0
-16 -4 -16 -10z"/>
<path d="M10957 1504 c-8 -8 1 -24 13 -24 4 0 10 7 14 15 5 15 -14 21 -27 9z"/>
<path d="M9750 1424 c0 -8 5 -12 10 -9 6 4 8 11 5 16 -9 14 -15 11 -15 -7z"/>
<path d="M9780 1409 c0 -5 5 -7 10 -4 6 3 10 8 10 11 0 2 -4 4 -10 4 -5 0 -10
-5 -10 -11z"/>
<path d="M10253 1386 c-10 -11 -9 -15 2 -20 21 -8 45 3 45 20 0 18 -31 17 -47
0z"/>
<path d="M10766 1374 c-22 -15 -22 -15 17 -32 23 -10 31 -10 43 2 21 21 17 29
-11 24 -15 -3 -25 0 -27 8 -2 10 -7 10 -22 -2z"/>
<path d="M11020 1386 c0 -9 30 -14 35 -6 4 6 -3 10 -14 10 -12 0 -21 -2 -21
-4z"/>
<path d="M10330 1360 c0 -5 5 -10 10 -10 6 0 10 5 10 10 0 6 -4 10 -10 10 -5
0 -10 -4 -10 -10z"/>
<path d="M11010 1362 c0 -15 51 -25 63 -13 8 8 5 11 -10 11 -12 0 -28 3 -37 6
-9 3 -16 2 -16 -4z"/>
<path d="M10856 1346 c3 -8 -2 -16 -13 -19 -16 -4 -16 -5 2 -6 11 0 26 3 34 8
11 7 9 11 -7 20 -18 9 -21 9 -16 -3z"/>
<path d="M9860 1325 c0 -8 2 -15 4 -15 2 0 6 7 10 15 3 8 1 15 -4 15 -6 0 -10
-7 -10 -15z"/>
<path d="M10910 1326 c0 -2 7 -7 16 -10 8 -3 12 -2 9 4 -6 10 -25 14 -25 6z"/>
<path d="M10954 1315 c3 -8 0 -15 -6 -15 -6 0 -9 -2 -6 -5 3 -3 13 -3 22 1 21
8 21 34 0 34 -10 0 -14 -6 -10 -15z"/>
<path d="M11080 1309 c0 -11 5 -17 10 -14 6 3 10 13 10 21 0 8 -4 14 -10 14
-5 0 -10 -9 -10 -21z"/>
<path d="M10350 1302 c0 -12 19 -26 26 -19 2 2 -2 10 -11 17 -9 8 -15 8 -15 2z"/>
<path d="M11050 1299 c0 -5 5 -7 10 -4 6 3 10 8 10 11 0 2 -4 4 -10 4 -5 0
-10 -5 -10 -11z"/>
<path d="M10775 1290 c3 -5 10 -10 16 -10 5 0 9 5 9 10 0 6 -7 10 -16 10 -8 0
-12 -4 -9 -10z"/>
<path d="M10870 1281 c0 -6 4 -12 8 -15 5 -3 9 1 9 9 0 8 -4 15 -9 15 -4 0 -8
-4 -8 -9z"/>
<path d="M11040 1270 c-8 -5 -25 -10 -38 -10 -21 0 -22 -2 -8 -15 8 -8 29 -15
47 -15 26 0 29 -3 20 -14 -9 -10 -8 -15 4 -20 8 -3 15 -1 15 5 0 6 6 6 18 1 9
-5 23 -7 31 -4 8 3 11 0 7 -7 -5 -7 4 -11 28 -11 19 0 38 -4 41 -10 8 -13 52
-13 60 0 4 7 12 7 25 0 10 -5 37 -10 59 -10 23 0 41 -5 41 -10 0 -6 6 -5 14 2
22 21 -14 39 -72 35 -27 -2 -62 2 -78 9 -28 12 -28 12 14 7 27 -3 42 -1 42 6
0 6 -9 11 -20 11 -11 0 -20 5 -20 10 0 6 -6 10 -12 9 -21 -3 -48 12 -48 28 0
8 -5 11 -10 8 -6 -4 -8 -11 -5 -16 9 -13 -9 -11 -24 4 -8 6 -11 8 -9 2 3 -5 0
-16 -8 -23 -12 -10 -14 -10 -14 2 0 9 -6 13 -14 10 -8 -3 -24 -1 -35 6 -16 8
-21 8 -22 -2 0 -7 -3 -5 -7 4 -5 13 -11 15 -22 8z"/>
<path d="M10000 1262 c0 -5 7 -9 15 -9 8 0 12 4 9 9 -3 4 -9 8 -15 8 -5 0 -9
-4 -9 -8z"/>
<path d="M10918 1263 c6 -2 18 -2 25 0 6 3 1 5 -13 5 -14 0 -19 -2 -12 -5z"/>
<path d="M10360 1188 c0 -17 2 -18 15 -8 8 7 15 14 15 15 0 2 -7 5 -15 9 -10
4 -15 -1 -15 -16z"/>
<path d="M10195 1190 c-3 -5 -2 -10 4 -10 5 0 13 5 16 10 3 6 2 10 -4 10 -5 0
-13 -4 -16 -10z"/>
<path d="M11655 1169 c-4 -6 -5 -13 -2 -16 7 -7 27 6 27 18 0 12 -17 12 -25
-2z"/>
<path d="M11745 1170 c4 -6 11 -8 16 -5 14 9 11 15 -7 15 -8 0 -12 -5 -9 -10z"/>
<path d="M11510 1141 c0 -4 20 -8 45 -10 25 -1 45 3 45 8 0 6 -20 10 -45 9
-25 0 -45 -4 -45 -7z"/>
<path d="M11460 1120 c0 -15 -9 -22 -30 -26 -16 -4 -30 -10 -30 -15 0 -12 2
-11 42 5 46 19 64 41 42 50 -23 9 -24 8 -24 -14z"/>
<path d="M10318 1113 c7 -3 16 -2 19 1 4 3 -2 6 -13 5 -11 0 -14 -3 -6 -6z"/>
<path d="M11380 1100 c0 -10 -89 -55 -102 -52 -5 1 -8 -3 -8 -9 0 -6 9 -8 23
-3 67 21 92 33 90 43 -2 6 2 11 7 11 6 0 10 5 10 10 0 6 -4 10 -10 10 -5 0
-10 -4 -10 -10z"/>
<path d="M11041 993 c0 -12 -4 -23 -8 -26 -5 -2 -3 -3 3 -1 7 1 10 -6 6 -18
-4 -18 -3 -19 16 -7 19 12 20 39 2 39 -5 0 -11 8 -13 18 -4 13 -5 12 -6 -5z"/>
<path d="M11451 965 c-79 -20 -159 -26 -167 -14 -4 7 -12 5 -22 -4 -27 -23
-49 -27 -82 -15 -42 14 -65 -5 -33 -27 13 -9 20 -22 17 -30 -8 -20 5 -19 116
9 52 13 130 27 173 31 63 6 77 10 73 22 -3 8 -6 21 -6 29 0 16 3 16 -69 -1z"/>
<path d="M2892 2525 c-18 -21 9 -85 37 -85 24 0 28 30 11 74 -11 29 -28 33
-48 11z"/>
<path d="M3329 2528 c-1 -7 -1 -19 0 -27 2 -7 -2 -10 -7 -7 -6 4 -5 -7 1 -24
8 -22 17 -30 32 -28 16 2 20 10 18 36 -1 32 -18 62 -34 62 -5 0 -10 -6 -10
-12z"/>
<path d="M3531 2567 c-15 -15 -14 -139 1 -172 17 -38 50 -33 82 13 29 42 35
106 13 136 -16 22 -81 38 -96 23z"/>
<path d="M5657 2543 c-12 -12 -7 -60 7 -72 14 -12 46 -5 58 13 13 19 9 54 -8
60 -21 8 -49 8 -57 -1z"/>
<path d="M7002 2517 c-32 -34 -31 -109 3 -142 13 -14 34 -25 45 -25 12 0 32
11 45 25 33 32 36 114 5 145 -27 27 -71 26 -98 -3z"/>
<path d="M7276 2521 c-23 -26 -31 -84 -16 -121 23 -55 72 -66 111 -24 31 33
34 111 5 143 -24 27 -77 28 -100 2z"/>
<path d="M14964 2466 c-12 -31 0 -71 23 -74 57 -8 88 54 38 76 -34 16 -54 15
-61 -2z"/>
<path d="M16429 2451 c-20 -16 -24 -29 -24 -70 0 -42 5 -55 27 -77 29 -30 76
-36 102 -15 9 8 21 31 26 52 25 93 -62 166 -131 110z"/>
<path d="M16723 2444 c-22 -22 -25 -32 -20 -77 8 -86 79 -126 132 -72 41 40
30 133 -19 167 -23 16 -67 7 -93 -18z"/>
<path d="M18236 2441 c-30 -33 -32 -100 -4 -141 19 -29 31 -36 64 -38 55 -4
87 30 87 93 0 66 -27 99 -85 103 -34 2 -48 -2 -62 -17z"/>
<path d="M18539 2441 c-34 -28 -35 -118 -1 -154 48 -51 113 -42 138 18 42 102
-58 200 -137 136z"/>
<path d="M2521 1673 c-16 -56 -5 -82 30 -80 34 2 38 26 15 82 -19 45 -33 44
-45 -2z"/>
<path d="M2729 1739 c0 -2 -2 -44 -5 -94 -5 -82 -4 -92 16 -112 23 -25 35 -29
45 -13 4 6 10 8 14 6 3 -3 18 12 31 32 33 47 35 122 4 152 -18 18 -103 41
-105 29z"/>
<path d="M4997 1693 c-12 -11 -8 -68 5 -81 18 -18 49 -14 69 10 22 24 23 32 9
59 -11 19 -68 28 -83 12z"/>
<path d="M6453 1680 c-26 -10 -53 -59 -53 -93 0 -38 20 -86 40 -97 34 -18 86
-12 102 13 31 47 28 138 -5 165 -19 16 -60 22 -84 12z"/>
<path d="M6722 1657 c-33 -35 -31 -129 3 -162 29 -30 73 -32 102 -6 42 40 38
157 -7 181 -32 17 -75 11 -98 -13z"/>
<path d="M12474 1597 c-3 -8 -4 -54 -2 -103 l3 -89 33 -3 c25 -3 39 3 62 27
25 24 30 38 30 76 0 38 -5 52 -29 76 -32 31 -87 40 -97 16z"/>
<path d="M14954 1577 c-3 -8 -4 -32 -2 -53 3 -33 7 -39 29 -42 38 -4 74 28 65
61 -3 15 -16 28 -29 32 -12 4 -30 9 -40 11 -9 3 -20 -1 -23 -9z"/>
<path d="M16521 1551 c-62 -62 -14 -202 68 -201 51 1 81 43 81 115 0 38 -5 52
-29 76 -36 35 -90 40 -120 10z"/>
<path d="M16847 1550 c-32 -26 -44 -79 -28 -131 14 -47 44 -69 92 -69 50 0 79
36 79 97 0 102 -75 156 -143 103z"/>
<path d="M18478 1545 c-49 -27 -60 -122 -21 -181 8 -13 30 -28 49 -34 45 -15
83 3 107 53 17 33 17 44 7 88 -19 76 -79 108 -142 74z"/>
<path d="M18781 1524 c-32 -40 -31 -122 0 -166 21 -29 72 -45 109 -33 51 16
76 114 45 175 -19 37 -43 50 -94 50 -31 0 -44 -6 -60 -26z"/>
<path d="M4457 833 c-13 -12 -7 -60 8 -73 36 -30 95 21 73 63 -9 17 -67 25
-81 10z"/>
<path d="M5965 798 c-73 -64 -15 -210 70 -178 58 22 70 139 18 180 -33 26 -56
25 -88 -2z"/>
<path d="M6267 798 c-62 -48 -29 -188 45 -188 71 0 106 122 52 181 -20 22 -72
25 -97 7z"/>
<path d="M12326 694 c-13 -33 -6 -162 9 -178 20 -19 73 -5 99 26 27 34 18 114
-18 145 -31 27 -81 31 -90 7z"/>
<path d="M14950 625 c0 -46 4 -50 45 -45 29 3 45 19 45 46 0 26 -26 44 -64 44
-24 0 -26 -3 -26 -45z"/>
<path d="M16608 640 c-42 -25 -45 -125 -6 -175 25 -33 89 -35 116 -5 56 66 17
190 -60 190 -18 0 -41 -5 -50 -10z"/>
<path d="M16934 626 c-25 -21 -27 -29 -26 -82 1 -52 5 -62 32 -86 37 -34 73
-36 105 -4 49 49 40 152 -15 181 -40 21 -65 19 -96 -9z"/>
<path d="M18643 606 c-25 -22 -28 -31 -28 -86 0 -57 2 -64 34 -92 28 -25 39
-29 70 -24 66 10 96 83 67 160 -26 67 -91 87 -143 42z"/>
<path d="M19004 620 c-34 -14 -54 -50 -54 -100 0 -138 146 -175 181 -46 13 47
0 103 -29 129 -23 21 -70 29 -98 17z"/>
<path d="M10240 11273 c-94 -12 -110 -15 -110 -25 0 -7 14 -8 40 -4 23 4 40 2
40 -3 0 -12 -37 -24 -49 -17 -5 4 -22 -1 -38 -9 -15 -8 -46 -22 -67 -32 -32
-14 -36 -18 -21 -23 17 -6 16 -7 -6 -13 -34 -10 -41 -9 -33 5 9 15 -14 2 -44
-26 -18 -16 -25 -18 -31 -7 -6 9 -12 3 -20 -20 -6 -18 -13 -30 -16 -27 -3 3
-1 17 4 32 12 29 3 33 -30 15 -11 -5 -17 -14 -13 -20 4 -6 11 -6 20 2 10 8 14
8 14 1 0 -13 -40 -38 -54 -34 -5 2 -28 0 -50 -4 -31 -5 -53 -19 -93 -59 -56
-57 -123 -154 -123 -179 0 -8 -5 -18 -10 -21 -6 -4 -8 -10 -6 -13 2 -4 -9 -26
-25 -50 -16 -23 -31 -58 -33 -78 -3 -20 -12 -47 -21 -60 -9 -14 -13 -28 -11
-33 3 -5 -1 -14 -9 -21 -9 -8 -13 -21 -9 -36 4 -13 1 -31 -6 -39 -6 -8 -9 -18
-6 -24 3 -5 1 -22 -5 -38 -39 -97 -32 -317 16 -498 14 -54 34 -183 39 -255 1
-25 4 9 5 75 2 66 4 136 5 156 4 49 29 159 37 159 6 0 19 44 33 109 3 13 1 31
-4 40 -13 25 -23 118 -23 211 -1 76 3 92 32 152 35 70 42 76 103 88 28 5 38 4
42 -7 3 -8 10 -11 16 -8 22 14 50 13 50 -1 0 -16 6 -16 35 -5 16 7 22 3 31
-22 6 -17 22 -40 36 -50 25 -19 26 -19 54 1 33 23 101 41 90 23 -4 -6 -2 -9 6
-6 7 2 31 6 53 8 22 3 46 6 54 8 8 2 19 -5 25 -17 6 -11 17 -19 24 -16 6 2 17
-9 22 -24 10 -25 11 -26 29 -10 13 12 21 14 26 6 4 -6 20 1 43 20 36 29 66 38
76 22 13 -22 65 -11 107 23 37 29 83 50 134 59 6 1 21 8 35 16 24 13 24 12 10
-5 -14 -17 -13 -18 3 -12 10 4 25 7 33 7 8 0 14 9 14 20 0 11 5 20 11 20 6 0
9 -7 5 -15 -4 -11 6 -9 39 9 24 14 63 28 87 31 23 4 46 9 50 11 5 3 8 -1 8 -8
0 -8 20 -22 46 -33 51 -21 87 -61 132 -150 35 -68 52 -145 32 -145 -9 0 -10
-10 -6 -35 6 -29 4 -34 -9 -29 -19 8 -19 -6 0 -42 9 -17 11 -30 5 -32 -15 -5
-12 -28 5 -42 13 -10 15 -9 16 11 0 22 1 23 8 4 5 -11 5 -22 0 -25 -13 -9 -4
-55 15 -85 26 -39 36 -79 42 -165 6 -89 11 -110 27 -110 7 0 18 -9 25 -20 14
-23 34 -27 26 -5 -4 10 -2 13 8 10 11 -4 21 9 37 46 12 29 18 55 13 58 -4 3
-8 40 -9 82 0 42 -6 86 -13 99 -10 20 -10 22 3 17 11 -4 13 0 9 16 -2 12 -8
27 -12 32 -15 21 -19 45 -8 51 7 4 8 3 4 -4 -4 -7 -2 -12 3 -12 16 0 14 87 -1
92 -10 4 -10 10 -2 29 6 13 9 40 7 59 -2 19 -4 49 -6 65 -1 17 -5 35 -8 40 -4
6 -6 22 -4 37 2 16 -5 38 -16 52 -12 15 -15 26 -8 28 10 3 -6 55 -21 68 -8 6
-27 57 -34 90 -8 37 -157 210 -181 210 -7 0 -15 9 -18 21 -3 12 -10 18 -17 14
-6 -3 -9 -1 -8 5 2 7 -18 24 -43 39 -52 30 -102 63 -109 72 -3 3 -16 10 -30
14 -14 4 -38 17 -54 28 -16 12 -26 16 -22 9 10 -16 1 -15 -35 4 -17 8 -38 14
-48 12 -10 -2 -25 3 -34 10 -8 7 -41 16 -71 19 -49 5 -54 8 -44 21 11 13 7 15
-34 9 -27 -4 -48 -3 -48 2 0 5 -11 9 -25 9 -14 0 -25 -5 -25 -10 0 -5 -5 -6
-12 -2 -13 8 -77 12 -118 7z m280 -99 c0 -2 -7 -4 -15 -4 -8 0 -15 4 -15 10 0
5 7 7 15 4 8 -4 15 -8 15 -10z m30 6 c0 -5 -2 -10 -4 -10 -3 0 -8 5 -11 10 -3
6 -1 10 4 10 6 0 11 -4 11 -10z m70 -6 c0 -8 -19 -13 -24 -6 -3 5 1 9 9 9 8 0
15 -2 15 -3z m35 -4 c3 -5 1 -10 -4 -10 -6 0 -11 5 -11 10 0 6 2 10 4 10 3 0
8 -4 11 -10z m-558 -46 c-16 -14 -31 -23 -34 -20 -7 7 36 46 51 46 6 0 -2 -12
-17 -26z m683 -16 c0 -6 -7 -5 -15 2 -8 7 -15 17 -15 22 0 6 7 5 15 -2 8 -7
15 -17 15 -22z m-749 -7 c-14 -10 -31 -17 -38 -14 -18 7 14 32 42 32 18 1 18
-1 -4 -18z m-61 -5 c0 -3 -4 -8 -10 -11 -5 -3 -10 -1 -10 4 0 6 5 11 10 11 6
0 10 -2 10 -4z m870 -21 c7 -8 8 -15 2 -15 -5 0 -15 7 -22 15 -7 8 -8 15 -2
15 5 0 15 -7 22 -15z m-903 -11 c-3 -3 -12 -4 -19 -1 -8 3 -5 6 6 6 11 1 17
-2 13 -5z m160 -20 c-3 -3 -12 -4 -19 -1 -8 3 -5 6 6 6 11 1 17 -2 13 -5z
m-95 -125 c-4 -4 -20 -11 -37 -14 -29 -7 -29 -7 -10 8 19 15 62 20 47 6z
m1208 -213 c0 -3 -4 -8 -10 -11 -5 -3 -10 -1 -10 4 0 6 5 11 10 11 6 0 10 -2
10 -4z m24 -392 c3 -8 2 -12 -4 -9 -6 3 -10 10 -10 16 0 14 7 11 14 -7z m-37
-206 c-3 -8 -6 -5 -6 6 -1 11 2 17 5 13 3 -3 4 -12 1 -19z m100 -48 c1 -11 -2
-18 -8 -15 -11 7 -12 35 -1 35 4 0 8 -9 9 -20z"/>
<path d="M10545 11260 c3 -5 11 -10 16 -10 6 0 7 5 4 10 -3 6 -11 10 -16 10
-6 0 -7 -4 -4 -10z"/>
<path d="M10015 11200 c-3 -5 1 -10 9 -10 9 0 16 5 16 10 0 6 -4 10 -9 10 -6
0 -13 -4 -16 -10z"/>
<path d="M10659 10066 c-3 -3 -32 -8 -65 -11 -76 -8 -83 -10 -119 -25 -16 -7
-37 -13 -45 -14 -24 -3 -70 -28 -70 -39 0 -5 -7 -6 -16 -3 -12 5 -14 1 -9 -15
5 -15 4 -19 -4 -15 -7 4 -11 -1 -11 -13 0 -12 5 -21 10 -21 6 0 10 -5 10 -11
0 -6 9 -22 20 -36 12 -16 20 -41 20 -64 0 -51 18 -98 30 -79 7 11 11 11 24 1
8 -7 19 -10 24 -7 5 3 18 -4 28 -15 19 -21 151 -89 173 -89 7 0 9 5 5 12 -5 7
-3 8 6 3 8 -5 39 -7 69 -6 86 4 118 29 64 49 -18 7 -22 11 -10 11 10 1 29 8
43 17 17 12 44 16 85 15 47 -1 66 3 90 19 26 20 28 25 23 63 -4 23 -11 48 -17
55 -5 6 -7 12 -4 12 3 0 0 12 -8 27 -8 15 -12 30 -10 34 7 11 -116 114 -138
114 -6 0 -28 8 -47 16 -33 15 -141 25 -151 15z"/>
<path d="M9746 9995 c-12 -6 -27 -10 -34 -7 -6 2 -12 -4 -12 -13 0 -9 -6 -15
-12 -14 -26 3 -51 -1 -45 -7 4 -4 -1 -14 -11 -23 -18 -16 -35 -46 -37 -66 0
-5 -6 -19 -12 -30 -19 -35 -26 -121 -11 -134 30 -26 86 -58 111 -65 15 -3 27
-10 27 -15 0 -5 29 -19 65 -31 53 -18 76 -20 118 -14 28 5 57 9 62 9 6 0 16 4
23 9 7 4 16 5 19 2 4 -3 12 2 19 12 7 10 32 24 56 31 24 7 49 18 56 24 10 8
16 7 22 -2 5 -9 9 -10 14 -2 4 6 11 9 15 7 4 -3 8 0 8 7 0 7 8 49 17 95 16 83
29 120 50 135 7 6 4 7 -7 3 -13 -4 -18 -1 -16 12 1 9 1 27 0 39 -1 23 -5 24
-76 39 -58 12 -386 11 -409 -1z"/>
<path d="M11387 9878 l-27 -34 27 -67 c17 -45 29 -63 35 -55 10 16 9 146 -1
172 -7 17 -10 16 -34 -16z"/>
<path d="M11220 9816 c0 -9 5 -16 10 -16 6 0 10 4 10 9 0 6 -4 13 -10 16 -5 3
-10 -1 -10 -9z"/>
<path d="M11320 9765 c0 -8 2 -15 4 -15 2 0 6 7 10 15 3 8 1 15 -4 15 -6 0
-10 -7 -10 -15z"/>
<path d="M9397 9718 c2 -18 6 -49 9 -68 l6 -34 19 24 c24 32 24 51 -2 84 -27
35 -36 33 -32 -6z"/>
<path d="M11274 9648 c-13 -25 -13 -31 1 -57 8 -17 24 -36 35 -44 23 -16 27
-37 17 -79 -6 -23 -5 -25 15 -20 56 14 76 84 49 170 l-18 57 -42 1 c-37 1 -44
-3 -57 -28z"/>
<path d="M9470 9594 c0 -9 -11 -27 -24 -39 -16 -14 -24 -32 -22 -47 3 -29 27
-78 37 -78 13 0 22 48 16 86 -3 20 -2 46 3 59 6 15 6 27 0 30 -6 4 -10 -1 -10
-11z"/>
<path d="M10181 9594 c0 -11 3 -14 6 -6 3 7 2 16 -1 19 -3 4 -6 -2 -5 -13z"/>
<path d="M10103 9447 c-18 -34 -35 -77 -39 -94 -4 -18 -10 -33 -15 -33 -5 0
-9 -6 -9 -13 0 -7 -11 -21 -25 -31 -13 -10 -22 -22 -20 -27 3 -4 -4 -10 -15
-14 -11 -3 -20 -14 -20 -23 0 -15 -2 -15 -10 -2 -8 13 -10 12 -11 -5 -1 -11
-1 -28 0 -39 1 -14 -2 -16 -12 -8 -15 13 -57 5 -57 -10 0 -5 -6 -8 -12 -5 -7
2 -21 -5 -30 -16 -22 -25 -22 -27 1 -22 14 3 18 -1 14 -16 -3 -10 -9 -17 -13
-14 -5 3 -16 -2 -25 -11 -22 -22 -31 -10 -17 21 14 31 15 45 3 45 -5 0 -12
-10 -16 -22 -3 -13 -9 -18 -11 -11 -3 7 -13 10 -22 7 -15 -5 -15 -4 1 6 20 13
22 35 5 46 -8 5 -9 2 -5 -9 4 -11 1 -17 -8 -17 -8 0 -15 5 -15 10 0 6 -8 10
-17 10 -9 0 -14 3 -10 6 11 11 -21 34 -37 28 -11 -4 -16 -1 -16 10 0 19 -16
22 -22 4 -2 -6 0 -32 4 -57 5 -25 12 -61 15 -79 3 -19 12 -36 19 -39 11 -4 12
-9 3 -19 -8 -10 -7 -20 4 -41 9 -15 28 -61 43 -100 15 -40 32 -73 37 -73 6 0
8 -3 4 -6 -12 -12 45 -109 91 -156 59 -61 43 -62 -26 -2 -28 25 -52 42 -52 37
0 -7 33 -98 100 -273 20 -53 42 -103 50 -110 13 -13 90 -173 86 -178 -4 -3 1
-13 10 -23 8 -9 17 -26 18 -36 2 -11 10 -17 22 -15 15 3 14 0 -6 -14 l-24 -18
22 -6 c13 -3 23 -9 23 -14 -1 -13 -51 -19 -51 -6 0 5 -6 10 -14 10 -8 0 -18 5
-22 11 -4 8 0 9 15 4 12 -4 21 -2 21 4 0 6 -16 11 -35 11 -24 0 -35 5 -35 15
0 8 -9 20 -20 27 -11 7 -20 17 -20 21 0 5 -7 16 -16 24 -13 14 -17 14 -25 2
-7 -11 -9 -9 -7 6 2 36 -2 56 -11 51 -5 -3 -21 10 -36 29 -26 32 -65 59 -49
33 5 -8 2 -9 -9 -5 -13 5 -17 0 -18 -21 -1 -24 -2 -23 -9 8 -5 20 -5 54 1 80
10 44 3 183 -10 208 -5 9 -17 3 -40 -20 -19 -18 -39 -33 -45 -33 -17 0 -45
-66 -46 -106 -1 -106 84 -293 168 -370 78 -70 173 -141 222 -166 26 -13 61
-43 82 -70 20 -27 49 -60 63 -75 24 -26 25 -29 11 -65 -20 -53 -27 -143 -11
-143 7 0 19 8 26 17 12 14 12 16 -1 9 -8 -4 -7 -1 3 7 18 15 18 16 0 26 -16 9
-16 10 -2 11 19 0 31 23 19 36 -16 17 -30 177 -18 197 5 8 8 4 8 -11 0 -14 4
-21 11 -17 6 4 8 13 5 20 -13 34 81 13 99 -21 19 -38 53 -74 69 -74 21 0 58
-38 50 -51 -4 -7 3 -9 17 -7 16 2 32 -5 47 -21 18 -18 26 -21 32 -11 6 9 11 7
19 -9 7 -11 18 -21 26 -21 10 0 15 -10 15 -31 0 -23 4 -30 14 -26 8 3 20 -1
26 -8 7 -8 17 -12 22 -9 6 4 5 10 -3 16 -10 7 -8 8 8 3 12 -3 24 -2 27 4 8 12
-4 42 -13 37 -4 -3 -13 -1 -20 3 -8 6 -3 12 19 21 20 8 27 16 19 20 -8 5 -4
10 11 15 30 10 44 -13 25 -42 -22 -33 -18 -40 8 -15 25 23 91 53 70 31 -17
-17 -16 -47 1 -65 16 -16 86 -19 86 -4 0 6 8 18 18 28 34 34 52 119 49 235 -2
108 -2 109 26 129 15 11 27 26 27 34 0 11 101 133 167 202 58 60 103 159 103
226 0 48 -40 132 -81 172 -26 25 -29 26 -30 8 0 -10 -2 -26 -3 -34 -2 -8 -6
-53 -10 -100 -7 -89 -28 -161 -56 -195 -9 -11 -20 -28 -23 -38 -4 -9 -17 -21
-31 -27 -26 -9 -44 -30 -27 -30 6 0 11 5 11 10 0 6 6 10 13 10 6 -1 2 -9 -10
-19 -13 -11 -23 -23 -23 -28 0 -13 -44 -53 -59 -53 -6 0 -21 -9 -33 -20 -12
-11 -31 -20 -42 -20 -20 -1 -20 -1 -3 -15 18 -13 17 -14 -7 -30 -14 -10 -26
-25 -26 -35 0 -51 -80 -121 -94 -83 -9 22 -8 23 24 23 28 0 45 20 18 20 -7 1
1 12 17 26 18 16 23 24 12 20 -47 -15 -67 -18 -67 -7 0 10 7 12 26 10 3 0 11
7 18 17 7 9 18 14 24 10 6 -3 13 -2 17 4 3 5 0 10 -7 10 -28 0 -38 21 -21 46
8 13 20 24 25 24 5 0 16 6 23 14 12 11 3 13 -53 11 -78 -3 -101 8 -76 36 22
25 37 24 24 -1 -9 -16 -8 -18 5 -14 8 4 15 10 15 15 0 4 6 6 13 4 16 -6 44 12
34 22 -5 4 -12 2 -16 -5 -10 -16 -57 2 -65 25 -5 11 -1 11 15 2 14 -7 19 -7
15 -1 -4 6 2 16 11 22 15 8 12 9 -11 4 -24 -6 -28 -4 -23 9 3 9 1 18 -6 21 -7
2 -4 5 6 5 9 1 17 -3 17 -9 0 -5 9 -10 20 -10 22 0 28 28 9 47 -7 7 -6 14 3
24 8 8 17 22 20 31 6 14 2 14 -28 -4 l-34 -20 0 35 c0 20 9 52 21 71 11 19 18
39 15 44 -3 5 10 23 29 41 19 17 35 26 35 20 0 -7 8 -5 20 6 11 10 20 30 20
45 0 14 3 30 8 36 4 5 0 2 -9 -8 -9 -9 -19 -14 -22 -11 -4 3 -18 -2 -31 -11
-30 -19 -42 -21 -27 -3 8 10 7 17 -1 25 -14 14 -32 16 -23 2 7 -11 -54 8 -73
23 -7 5 -47 12 -90 14 -42 2 -95 5 -117 7 -24 2 -49 -2 -64 -11 -13 -8 -20
-10 -16 -4 7 12 -11 41 -26 41 -5 0 -9 -7 -9 -16 0 -10 -7 -14 -22 -13 -13 2
-29 -1 -37 -5 -9 -6 -18 -3 -27 9 -11 14 -28 18 -81 19 -38 1 -75 6 -83 11
-15 10 -20 11 -53 13 -11 1 -15 7 -11 14 5 7 2 9 -9 5 -12 -5 -15 0 -11 25 3
30 14 52 14 30 0 -7 14 -12 30 -12 17 0 30 5 30 13 0 6 23 22 50 35 44 20 71
24 208 28 188 6 182 5 182 15 0 4 9 11 20 14 11 3 20 13 20 21 0 8 8 22 18 32
9 9 19 32 20 51 2 28 0 32 -15 26 -33 -14 -93 -22 -93 -14 0 12 -41 11 -114
-2 -36 -7 -86 -9 -118 -5 -45 6 -57 12 -66 31 -10 22 -9 24 26 29 20 3 56 5
80 5 24 0 84 5 135 10 51 6 101 9 112 7 11 -3 28 -5 38 -5 10 -1 15 -5 12 -11
-3 -5 4 -10 17 -11 78 -4 98 -7 113 -22 9 -10 20 -17 25 -17 10 0 31 -60 25
-70 -3 -5 2 -16 11 -24 14 -15 13 -17 -15 -22 -17 -4 -31 -12 -31 -18 0 -6 -4
-5 -9 3 -5 8 -6 21 -3 30 5 13 3 14 -10 4 -8 -7 -18 -10 -21 -7 -8 8 -67 -16
-67 -27 0 -15 20 -20 39 -10 14 8 29 7 54 -4 18 -7 44 -11 57 -8 18 5 21 3 14
-8 -6 -10 0 -9 19 4 14 9 34 17 42 17 12 0 15 6 10 20 -4 12 -2 20 5 20 6 0
10 16 8 41 -2 43 -15 60 -28 39 -10 -17 -40 -5 -40 15 0 8 -4 15 -9 15 -6 0
-10 8 -10 18 -1 44 -6 55 -23 60 -10 2 -18 11 -18 19 0 8 -4 11 -10 8 -5 -3
-10 2 -10 11 0 10 -3 15 -6 12 -3 -4 -20 -2 -37 3 -25 7 -34 5 -48 -10 -17
-18 -20 -17 -123 18 -104 35 -106 35 -136 18 -25 -15 -35 -16 -69 -6 -37 11
-44 9 -122 -30 -64 -32 -85 -38 -96 -30 -11 10 -11 15 3 30 11 12 13 19 6 20
-21 2 -27 4 -39 12 -6 4 -14 3 -18 -3 -9 -15 -25 -12 -25 5 0 8 -5 15 -11 15
-6 0 -8 -9 -4 -21 5 -14 4 -19 -4 -15 -7 5 -9 1 -5 -8 3 -9 1 -16 -5 -16 -6 0
-11 4 -11 9 0 5 -7 11 -15 15 -23 8 -55 -25 -55 -56 0 -16 -5 -28 -12 -28 -9
0 -9 -3 0 -12 21 -21 13 -36 -23 -40 -50 -6 -59 3 -56 58 1 50 16 70 38 53 7
-6 16 -8 22 -5 5 3 12 0 15 -6 3 -7 3 -2 0 11 -3 13 -2 26 2 30 15 11 34 50
30 63 -1 7 -1 10 1 6 9 -16 19 -7 31 26 7 19 28 52 47 73 19 21 35 43 35 50 0
21 39 36 56 22 21 -18 54 -84 54 -109 0 -17 4 -20 20 -15 15 5 18 3 14 -9 -7
-18 11 -22 21 -6 5 8 11 7 21 -1 8 -6 27 -9 44 -7 23 4 35 -2 55 -24 28 -31
39 -34 55 -15 45 53 49 61 44 83 -5 18 -2 24 10 24 9 0 16 4 16 8 0 14 60 44
93 46 29 2 32 6 37 41 l5 38 45 -50 c25 -27 52 -53 60 -56 13 -5 13 -6 0 -6
-14 -1 -5 -10 67 -74 18 -16 23 -16 57 -2 20 9 34 20 30 26 -3 6 -12 8 -19 5
-7 -2 -21 4 -30 14 -10 11 -22 17 -26 14 -5 -3 -9 -1 -9 4 0 5 -11 15 -25 22
-13 7 -22 17 -18 23 3 5 0 8 -8 5 -15 -5 -32 8 -42 34 -3 10 -24 30 -45 45
-22 16 -43 37 -48 47 -16 36 -31 29 -28 -12 1 -21 -2 -45 -7 -53 -5 -8 -9 -9
-9 -3 0 21 -87 37 -225 41 -77 2 -150 4 -162 4 -27 1 -29 19 -8 79 17 48 18
60 8 60 -5 0 -23 -28 -40 -63z m-300 -467 c3 -11 1 -18 -4 -14 -5 3 -9 12 -9
20 0 20 7 17 13 -6z m363 -67 c-10 -10 -19 5 -10 18 6 11 8 11 12 0 2 -7 1
-15 -2 -18z m-100 -67 c3 -53 3 -56 -20 -56 -13 0 -29 7 -36 15 -9 11 -16 13
-24 5 -16 -16 -26 -12 -26 10 0 12 -7 20 -17 21 -14 0 -15 2 -3 6 8 3 25 16
36 29 15 16 25 19 32 12 8 -8 16 -6 28 6 22 22 25 17 30 -48z m28 -81 c-4 -8
-11 -12 -16 -9 -6 4 -5 10 3 15 19 12 19 11 13 -6z m46 -19 c0 -3 -4 -8 -10
-11 -5 -3 -10 -1 -10 4 0 6 5 11 10 11 6 0 10 -2 10 -4z m590 -581 c0 -5 -5
-3 -10 5 -5 8 -10 20 -10 25 0 6 5 3 10 -5 5 -8 10 -19 10 -25z m-653 -251
c-3 -3 -12 -4 -19 -1 -8 3 -5 6 6 6 11 1 17 -2 13 -5z m643 -64 c0 -5 -2 -10
-4 -10 -3 0 -8 5 -11 10 -3 6 -1 10 4 10 6 0 11 -4 11 -10z m-580 -51 c0 -6
-4 -7 -10 -4 -5 3 -10 11 -10 16 0 6 5 7 10 4 6 -3 10 -11 10 -16z m30 -25 c0
-8 -5 -12 -10 -9 -6 4 -8 11 -5 16 9 14 15 11 15 -7z m530 -44 c0 -6 -6 -10
-12 -11 -10 0 -10 -2 0 -6 21 -8 13 -25 -9 -18 -20 7 -20 6 -3 -26 11 -23 13
-34 5 -37 -6 -2 -11 -10 -11 -18 0 -8 -4 -14 -10 -14 -10 0 -12 12 -13 58 0
14 -4 21 -12 18 -8 -3 -11 2 -8 15 3 10 10 19 15 19 6 0 8 6 5 13 -3 7 6 13
24 14 16 1 29 -2 29 -7z"/>
<path d="M11238 9163 c7 -3 16 -2 19 1 4 3 -2 6 -13 5 -11 0 -14 -3 -6 -6z"/>
<path d="M10165 9119 c-10 -15 3 -25 16 -12 7 7 7 13 1 17 -6 3 -14 1 -17 -5z"/>
<path d="M10810 9111 c0 -5 5 -13 10 -16 6 -3 10 -2 10 4 0 5 -4 13 -10 16 -5
3 -10 2 -10 -4z"/>
<path d="M9525 9100 c-18 -7 -18 -9 9 -19 33 -13 46 -7 25 13 -9 9 -21 11 -34
6z"/>
<path d="M10120 9095 c0 -8 2 -15 4 -15 2 0 6 7 10 15 3 8 1 15 -4 15 -6 0
-10 -7 -10 -15z"/>
<path d="M10840 9081 c0 -5 12 -11 27 -14 26 -5 26 -4 8 9 -22 16 -35 18 -35
5z"/>
<path d="M9840 8936 c0 -9 5 -16 10 -16 6 0 10 4 10 9 0 6 -4 13 -10 16 -5 3
-10 -1 -10 -9z"/>
<path d="M10866 8515 c-9 -26 -7 -32 5 -12 6 10 9 21 6 23 -2 3 -7 -2 -11 -11z"/>
<path d="M10760 8050 c0 -5 5 -10 11 -10 5 0 7 5 4 10 -3 6 -8 10 -11 10 -2 0
-4 -4 -4 -10z"/>
<path d="M9712 7863 c29 -33 56 -59 136 -134 9 -8 29 -23 44 -32 19 -12 25
-22 21 -37 -3 -12 -11 -19 -19 -16 -7 3 -17 -2 -22 -10 -7 -12 -17 -10 -68 16
-69 36 -59 26 75 -78 79 -62 129 -117 82 -93 -47 25 -27 6 80 -79 104 -83 159
-110 159 -79 0 8 18 10 55 7 43 -4 67 -13 108 -41 45 -32 53 -34 61 -20 7 13
-1 25 -34 55 -67 61 -95 71 -198 76 -87 4 -93 6 -112 32 -11 16 -20 31 -20 34
0 4 -12 24 -26 45 -23 36 -24 42 -13 80 11 37 10 43 -14 79 -20 31 -33 40 -66
46 -22 3 -46 13 -55 21 -8 8 -19 15 -25 15 -5 0 -18 10 -28 23 -23 29 -137
127 -147 127 -5 0 7 -17 26 -37z"/>
<path d="M11026 7685 c-93 -65 -81 -65 26 -1 10 6 20 16 22 23 7 16 9 18 -48
-22z"/>
<path d="M9272 7668 c5 -13 45 -37 98 -58 107 -41 405 -177 608 -276 128 -62
238 -114 245 -115 30 -4 43 2 43 20 0 12 -7 19 -17 18 -10 -1 -15 -5 -13 -9
11 -18 -24 -6 -77 26 -111 67 -451 244 -549 286 -41 17 -100 43 -130 57 -51
24 -109 43 -137 45 -7 1 -13 4 -13 7 0 3 -14 7 -31 8 -19 2 -29 -2 -27 -9z"/>
<path d="M10620 7360 c-30 -17 -73 -39 -95 -50 -53 -25 -69 -39 -88 -77 -30
-57 4 -123 63 -123 27 0 42 39 30 79 -10 35 -5 43 26 35 19 -5 26 -1 34 20 7
19 17 26 37 26 27 0 49 20 97 85 13 19 14 18 10 -10 l-5 -30 15 25 c25 41 20
50 -26 50 -29 0 -61 -10 -98 -30z"/>
<path d="M10288 7213 c6 -2 18 -2 25 0 6 3 1 5 -13 5 -14 0 -19 -2 -12 -5z"/>
<path d="M10345 6989 c-15 -29 -15 -32 2 -44 25 -19 33 -10 33 36 0 47 -14 50
-35 8z"/>
<path d="M10437 6296 c-35 -32 -34 -67 1 -107 24 -27 30 -29 54 -20 33 13 44
47 32 104 -7 35 -13 43 -35 45 -16 2 -35 -6 -52 -22z"/>
<path d="M9845 6301 c-44 -11 -73 -29 -90 -55 -25 -38 -64 -163 -71 -229 -4
-34 -10 -67 -15 -72 -4 -6 -11 -26 -14 -45 -3 -18 -8 -36 -10 -40 -2 -3 3 -19
11 -34 7 -16 14 -51 14 -80 0 -28 7 -94 17 -146 16 -97 25 -412 11 -403 -5 2
-8 -22 -8 -54 0 -32 -3 -233 -7 -447 l-6 -389 24 7 c13 3 59 13 102 22 87 17
142 10 245 -28 29 -11 55 -18 58 -16 10 11 23 125 28 258 6 142 11 222 21 378
3 42 12 176 20 297 13 206 32 322 66 412 5 15 12 52 15 82 3 31 13 67 21 80
10 15 13 37 9 65 -3 22 -8 61 -11 86 -25 216 -44 289 -81 314 -51 35 -263 57
-349 37z"/>
<path d="M8177 6180 c3 -11 11 -20 19 -20 18 0 28 -20 17 -31 -9 -9 -7 -37 12
-134 3 -16 8 -36 10 -42 2 -7 0 -13 -5 -13 -6 0 -10 -7 -10 -15 0 -8 3 -14 8
-12 4 1 8 -2 9 -8 4 -17 -8 -45 -19 -45 -7 0 -7 -4 -1 -12 13 -16 13 -108 0
-108 -5 0 -7 -6 -4 -14 3 -8 1 -16 -5 -18 -8 -3 -7 -9 3 -17 9 -9 13 -29 10
-59 -2 -32 1 -49 11 -56 11 -9 38 -85 38 -109 0 -3 -10 -7 -22 -10 -18 -5 -19
-8 -8 -21 9 -12 9 -16 1 -16 -7 0 -9 -5 -6 -11 4 -6 14 -8 23 -4 13 5 13 2 -2
-14 -10 -11 -16 -27 -13 -34 3 -8 1 -19 -5 -25 -7 -7 -6 -16 1 -30 6 -11 11
-27 10 -34 0 -7 -4 -4 -9 7 -8 18 -9 18 -10 -5 -2 -14 -2 -29 -1 -34 1 -5 -6
-17 -16 -28 -14 -15 -14 -19 -3 -16 26 5 16 -26 -10 -33 -23 -6 -22 -7 8 -8
17 -1 32 -6 32 -11 0 -6 -6 -10 -12 -9 -29 3 -46 -2 -51 -15 -4 -10 -1 -13 7
-10 8 3 12 -3 11 -15 -2 -29 -12 -36 -30 -21 -20 16 -20 3 0 -17 14 -14 14
-17 -2 -30 -10 -8 -12 -12 -5 -8 8 4 12 -2 12 -19 0 -14 -5 -25 -11 -23 -6 1
-14 -4 -16 -10 -3 -7 1 -13 9 -13 7 0 14 -13 15 -30 2 -25 -3 -33 -23 -40 -14
-6 -22 -14 -19 -20 3 -5 0 -10 -8 -10 -10 0 -13 -7 -10 -20 4 -16 1 -18 -18
-15 -13 3 -25 9 -27 15 -2 5 -9 10 -15 10 -7 -1 -1 -10 13 -21 23 -19 23 -22
7 -34 -31 -22 -20 -51 18 -46 6 1 2 -5 -7 -12 -10 -8 -15 -17 -11 -21 8 -8
-16 -26 -35 -26 -7 0 -11 4 -7 9 3 5 1 12 -4 15 -16 11 -23 -28 -7 -40 20 -14
21 -34 1 -34 -8 0 -15 -4 -15 -10 0 -5 8 -7 18 -4 14 5 14 3 -3 -10 -11 -9
-25 -14 -32 -12 -7 3 -13 1 -13 -4 0 -6 10 -10 22 -10 12 0 18 -3 14 -7 -3 -4
4 -13 16 -20 20 -11 20 -12 4 -13 -13 0 -16 -5 -12 -16 8 -20 -19 -64 -38 -64
-8 0 -16 -7 -19 -15 -5 -11 -1 -12 18 -5 17 6 25 5 29 -5 3 -9 0 -12 -10 -8
-7 3 -14 0 -14 -6 0 -6 -9 -11 -21 -11 -11 0 -17 -5 -14 -10 7 -11 -18 -40
-34 -40 -6 0 -11 -4 -11 -10 0 -5 -12 -10 -26 -10 -22 0 -25 -2 -14 -15 7 -8
19 -15 26 -15 8 0 14 -7 14 -15 0 -8 7 -15 15 -15 8 0 22 -14 30 -30 9 -17 36
-50 60 -74 42 -40 64 -74 30 -46 -8 7 -15 9 -15 4 0 -5 -4 -4 -8 1 -7 10 -24
20 -189 106 -102 54 -283 119 -388 140 -38 8 -128 14 -200 14 -117 0 -135 -2
-178 -24 -26 -13 -53 -33 -59 -44 -11 -21 -10 -21 14 -5 106 69 392 60 593
-20 92 -36 213 -110 266 -161 60 -59 181 -131 219 -131 18 0 20 6 20 54 0 110
45 281 139 526 29 74 54 136 56 138 1 2 8 -20 14 -48 6 -28 22 -75 36 -104 29
-61 31 -106 10 -221 -8 -44 -14 -118 -15 -164 0 -77 1 -83 15 -65 8 11 15 41
15 70 0 29 9 82 21 119 14 47 18 79 14 106 -4 22 -3 45 2 52 5 7 18 40 28 73
12 39 24 60 31 57 7 -2 14 4 17 14 4 16 6 15 12 -4 4 -13 11 -20 16 -17 5 3 7
10 4 15 -4 5 -1 9 6 9 6 0 -4 15 -24 34 -20 18 -33 37 -30 40 4 4 6 25 5 49
-3 52 5 64 43 70 l30 4 -32 2 c-38 1 -45 21 -8 21 19 0 25 5 26 23 1 20 2 20
6 2 3 -11 11 -24 19 -28 8 -4 14 -14 14 -20 0 -16 38 -15 67 1 14 8 24 9 28 2
4 -6 13 -7 23 -1 23 11 42 3 42 -17 0 -14 2 -15 10 -2 8 12 11 12 28 -3 24
-22 34 -22 30 1 -2 12 3 16 19 14 12 -2 24 2 28 8 8 13 45 13 45 0 0 -5 10
-10 23 -9 20 0 20 1 3 8 -19 7 -19 8 0 16 10 4 25 7 32 6 7 -1 29 14 50 33 20
20 44 36 53 36 9 0 27 16 40 35 13 19 27 35 32 36 4 1 13 2 20 3 7 1 12 17 12
44 0 23 3 42 8 42 4 0 7 6 7 14 0 8 6 16 13 19 6 2 9 7 6 11 -4 4 -13 0 -21
-8 -17 -16 -62 -21 -97 -10 -23 7 -23 8 -6 21 16 11 16 13 3 13 -9 0 -23 -6
-31 -14 -7 -8 -19 -11 -26 -7 -10 6 -9 12 3 24 23 23 21 25 -26 20 -80 -7
-108 -14 -108 -26 0 -7 -5 -4 -11 6 -5 9 -7 22 -3 29 5 8 2 9 -9 5 -10 -3 -17
-2 -17 3 0 6 7 10 15 10 16 0 20 16 6 24 -5 3 -14 -1 -21 -9 -13 -16 -45 -21
-36 -7 3 5 -1 9 -9 9 -8 0 -12 -5 -8 -10 3 -5 -4 -6 -17 -2 -20 6 -22 5 -17
-15 4 -17 3 -20 -6 -11 -14 14 -30 14 -21 0 5 -9 -17 -10 -82 -4 -99 8 -108
11 -100 31 3 8 -1 14 -9 14 -8 0 -15 7 -15 15 0 17 16 20 25 4 5 -7 15 -3 30
11 13 12 35 23 49 24 14 0 28 7 31 14 2 6 14 12 25 12 12 0 19 -4 16 -9 -4 -5
4 -7 16 -3 12 3 18 7 12 9 -6 2 -9 14 -7 27 4 19 -1 24 -35 34 -22 7 -62 12
-91 12 -28 0 -51 4 -51 10 0 5 -6 7 -14 4 -17 -7 -40 31 -32 52 4 11 11 11 32
4 18 -7 44 -7 84 2 50 10 58 15 58 35 0 12 -4 20 -8 18 -5 -3 -15 2 -24 10
-14 14 -48 16 -61 3 -12 -12 -46 5 -41 19 3 8 6 19 6 24 0 5 7 9 15 9 8 0 15
7 15 15 0 8 4 15 9 15 5 0 13 9 16 20 4 11 23 29 43 38 20 10 36 24 34 30 -1
7 2 12 8 12 6 0 10 7 10 15 0 20 -39 19 -61 -1 -9 -8 -23 -17 -31 -18 -36 -8
-68 -19 -68 -25 0 -3 -13 -7 -28 -8 -29 -2 -29 -2 -18 38 6 24 18 41 29 45 13
4 16 9 8 13 -7 5 -2 12 16 21 l28 14 -32 4 c-18 2 -33 9 -33 16 0 19 30 76 40
76 5 0 11 9 15 19 3 10 19 24 35 31 17 7 30 16 30 21 0 11 94 54 111 51 13 -2
112 64 108 73 -4 10 -43 12 -134 5 -81 -6 -154 -39 -278 -127 l-45 -33 -6 28
c-4 15 -4 38 -1 50 3 18 1 22 -10 18 -12 -4 -15 9 -15 75 0 78 -1 79 -21 69
-11 -7 -19 -17 -16 -23 2 -7 -1 -18 -9 -24 -10 -10 -14 -8 -20 10 -5 12 -7 25
-6 30 1 4 -3 7 -9 7 -6 0 -9 -6 -6 -14 4 -10 0 -14 -13 -13 -10 1 -16 5 -13
10 4 7 -62 77 -72 77 -2 0 -1 -9 2 -20z m100 -102 c-3 -8 -6 -5 -6 6 -1 11 2
17 5 13 3 -3 4 -12 1 -19z m-30 -874 c-3 -3 -12 -4 -19 -1 -8 3 -5 6 6 6 11 1
17 -2 13 -5z m588 -43 c3 -6 -4 -9 -15 -8 -11 1 -20 5 -20 9 0 11 28 10 35 -1z
m110 -31 c-3 -5 -10 -10 -16 -10 -5 0 -9 5 -9 10 0 6 7 10 16 10 8 0 12 -4 9
-10z m-88 -36 c-3 -3 -12 -4 -19 -1 -8 3 -5 6 6 6 11 1 17 -2 13 -5z m163 -14
c0 -5 -5 -10 -11 -10 -5 0 -7 5 -4 10 3 6 8 10 11 10 2 0 4 -4 4 -10z m70 -15
c0 -8 -4 -15 -10 -15 -5 0 -10 7 -10 15 0 8 5 15 10 15 6 0 10 -7 10 -15z m60
5 c0 -5 -4 -10 -10 -10 -5 0 -10 5 -10 10 0 6 5 10 10 10 6 0 10 -4 10 -10z
m-297 -7 c-7 -2 -19 -2 -25 0 -7 3 -2 5 12 5 14 0 19 -2 13 -5z m197 -13 c0
-5 -5 -10 -11 -10 -5 0 -7 5 -4 10 3 6 8 10 11 10 2 0 4 -4 4 -10z m-268 -13
c-15 -7 -26 -7 -33 0 -6 6 1 10 23 10 30 0 30 -1 10 -10z m-47 -47 c-3 -5 -1
-11 5 -15 19 -12 10 -26 -12 -19 -20 6 -21 5 -9 -9 11 -15 10 -18 -14 -27 -15
-6 -32 -13 -36 -16 -5 -3 -9 0 -9 6 0 6 14 13 32 17 l32 6 -45 13 c-55 17 -54
17 -38 -2 12 -15 11 -16 -11 -8 -14 4 -34 8 -45 9 -14 0 -20 7 -21 25 -1 24 1
25 68 24 37 -1 71 2 73 7 3 4 12 6 20 3 8 -4 13 -10 10 -14z m35 -10 c0 -5 -4
-10 -10 -10 -5 0 -10 5 -10 10 0 6 5 10 10 10 6 0 10 -4 10 -10z m-790 -620
c0 -5 -9 -10 -21 -10 -11 0 -17 5 -14 10 3 6 13 10 21 10 8 0 14 -4 14 -10z"/>
<path d="M12350 6194 c0 -3 14 -25 31 -49 l32 -44 -13 -73 c-20 -125 -22 -133
-36 -141 -8 -4 -14 -24 -14 -45 0 -20 -7 -50 -15 -66 -8 -15 -15 -34 -15 -41
0 -6 -8 -27 -17 -46 -10 -19 -27 -70 -39 -114 l-21 -80 -17 30 c-10 17 -14 21
-10 10 3 -11 8 -54 10 -95 4 -65 3 -72 -8 -50 -7 14 -15 27 -19 30 -4 3 -9 16
-10 30 -3 17 -11 25 -25 26 -12 1 -26 4 -32 8 -13 8 -22 -17 -16 -46 2 -13 7
-45 10 -73 3 -27 12 -63 19 -80 27 -60 27 -72 3 -80 -13 -4 -27 -6 -33 -5 -5
1 -7 -1 -3 -5 4 -4 1 -14 -7 -21 -9 -10 -11 -23 -6 -42 6 -19 4 -37 -5 -53 -7
-13 -13 -41 -14 -61 0 -20 -7 -70 -16 -110 -24 -109 -32 -208 -18 -208 7 0 15
6 17 13 4 9 8 9 15 -1 7 -10 12 -1 20 31 13 51 81 197 92 197 4 0 12 -19 19
-42 7 -24 23 -61 35 -83 13 -22 31 -71 41 -110 10 -38 36 -106 58 -150 33 -66
41 -77 48 -60 4 11 7 -89 6 -222 l-2 -241 29 -30 28 -30 45 19 c25 10 50 19
56 19 7 0 50 26 97 58 74 50 177 95 217 95 7 0 10 3 8 7 -2 4 24 15 58 25 115
32 117 33 77 34 -20 1 -69 -8 -110 -20 -41 -12 -79 -22 -85 -23 -5 -1 -27 -10
-47 -18 -20 -9 -49 -18 -65 -19 -15 -2 -33 -7 -38 -11 -6 -4 -17 -3 -25 2 -17
11 -18 10 85 35 38 9 74 20 80 25 25 20 164 44 255 44 98 -1 269 -31 338 -60
130 -55 144 -74 189 -249 7 -27 8 -25 11 20 9 125 -24 182 -128 229 -85 38
-147 54 -285 71 -163 20 -206 19 -391 -10 -173 -27 -244 -31 -244 -14 0 6 7 8
16 5 8 -3 13 -2 10 3 -8 12 14 28 49 35 17 4 50 26 74 48 43 42 43 42 20 51
-13 5 -32 13 -41 18 -10 5 -24 9 -32 9 -8 0 -16 7 -20 15 -3 8 -15 15 -27 15
-12 0 -20 3 -16 6 3 3 -3 14 -14 25 -10 10 -19 28 -19 39 0 11 -5 20 -12 20
-25 0 2 11 38 15 71 9 94 16 94 31 0 8 5 14 10 14 6 0 10 5 10 10 0 6 -7 10
-15 10 -9 0 -26 10 -38 23 -15 15 -32 21 -51 19 -18 -2 -26 0 -21 7 3 6 12 11
20 11 20 0 27 30 9 37 -13 5 -13 7 -2 14 9 6 6 9 -12 9 l-25 0 25 20 c22 17
22 20 6 20 -14 0 -17 5 -12 23 3 12 6 26 6 30 0 5 4 6 9 2 15 -8 25 15 12 28
-6 6 -11 19 -11 28 0 9 -6 19 -14 22 -21 8 -13 59 10 68 18 7 17 8 -2 8 -12 1
-24 8 -27 15 -4 10 -1 13 9 9 10 -4 12 0 8 11 -3 9 -1 16 5 16 6 0 11 4 11 10
0 5 -6 7 -14 4 -16 -6 -30 22 -16 31 18 11 10 23 -10 18 -22 -6 -28 12 -7 20
7 3 5 6 -5 6 -19 1 -26 21 -8 21 7 0 8 13 4 35 -4 22 -2 35 5 35 6 0 8 -7 5
-15 -4 -8 -2 -15 3 -15 5 0 10 6 11 13 2 30 13 62 22 65 5 2 10 8 10 13 0 6
-4 8 -9 4 -5 -3 -12 -1 -15 4 -3 5 -15 7 -25 4 -13 -3 -23 2 -30 15 -12 23 2
32 50 32 18 0 28 4 24 10 -3 6 -18 7 -33 3 -24 -6 -26 -5 -13 10 9 11 10 17 2
17 -6 0 -11 7 -11 15 0 8 -4 15 -9 15 -6 0 -8 9 -6 20 2 11 0 20 -4 20 -4 0
-7 35 -6 78 1 47 -2 80 -9 85 -8 6 -8 10 0 13 6 3 9 16 6 31 -4 19 -2 24 7 18
9 -5 9 -1 -1 14 -11 18 -11 23 1 30 7 5 10 14 6 20 -4 7 -1 18 5 26 10 12 9
15 -4 15 -10 0 -16 9 -16 24 0 14 -5 37 -10 52 -8 21 -8 29 2 36 9 5 7 8 -7 8
-11 0 -15 4 -10 8 14 10 18 42 5 42 -6 0 -8 4 -5 10 16 26 11 97 -11 140 -26
52 -66 100 -83 100 -6 0 -11 5 -11 10 0 6 -4 10 -10 10 -5 0 -10 -3 -10 -6z
m130 -158 c0 -3 -4 -8 -10 -11 -5 -3 -10 -1 -10 4 0 6 5 11 10 11 6 0 10 -2
10 -4z m-410 -1296 c0 -5 -4 -10 -10 -10 -5 0 -10 5 -10 10 0 6 5 10 10 10 6
0 10 -4 10 -10z m495 -40 c3 -6 -1 -7 -9 -4 -18 7 -21 14 -7 14 6 0 13 -4 16
-10z m40 -98 c-2 -2 -14 0 -27 4 -22 7 -22 7 -3 14 17 6 41 -8 30 -18z m30
-50 c-3 -3 -11 0 -18 7 -9 10 -8 11 6 5 10 -3 15 -9 12 -12z m-20 -412 c3 -5
1 -10 -4 -10 -6 0 -11 5 -11 10 0 6 2 10 4 10 3 0 8 -4 11 -10z"/>
<path d="M10330 6028 c0 -19 2 -20 10 -8 13 19 13 30 0 30 -5 0 -10 -10 -10
-22z"/>
<path d="M8021 6012 c0 -4 9 -20 20 -37 10 -16 22 -37 25 -45 17 -37 54 -64
54 -39 0 5 -5 7 -11 3 -7 -4 -9 0 -5 14 4 13 1 22 -9 26 -8 3 -15 10 -15 16 0
6 -7 18 -15 27 -8 8 -13 18 -10 23 3 4 -4 10 -15 13 -11 3 -20 2 -19 -1z"/>
<path d="M10326 5941 c-4 -7 -5 -15 -2 -18 9 -9 19 4 14 18 -4 11 -6 11 -12 0z"/>
<path d="M8223 5903 c-15 -5 -17 -23 -4 -23 5 0 11 7 15 15 3 8 4 15 3 14 -1
0 -8 -3 -14 -6z"/>
<path d="M8105 5861 c-3 -5 -1 -12 5 -16 5 -3 10 1 10 9 0 18 -6 21 -15 7z"/>
<path d="M8177 5819 c7 -7 15 -10 18 -7 3 3 -2 9 -12 12 -14 6 -15 5 -6 -5z"/>
<path d="M8710 5690 c0 -5 5 -10 11 -10 5 0 7 5 4 10 -3 6 -8 10 -11 10 -2 0
-4 -4 -4 -10z"/>
<path d="M8674 5514 c-18 -14 -18 -15 4 -4 12 6 22 13 22 15 0 8 -5 6 -26 -11z"/>
<path d="M9200 5310 c-9 -6 -10 -10 -3 -10 6 0 15 5 18 10 8 12 4 12 -15 0z"/>
<path d="M10374 5286 c-20 -20 -34 -44 -34 -59 0 -30 42 -77 70 -77 26 0 70
42 71 70 4 66 0 92 -10 85 -5 -3 -12 -1 -16 5 -12 20 -48 9 -81 -24z"/>
<path d="M12111 5298 c-1 -10 -6 -18 -13 -18 -9 0 -9 -3 -1 -11 18 -18 30 -6
22 21 -4 16 -7 19 -8 8z"/>
<path d="M9114 5291 c4 -5 0 -12 -6 -14 -10 -4 -10 -6 0 -6 7 -1 11 -4 9 -8
-3 -5 6 -9 19 -9 13 -1 24 2 24 7 0 5 -5 9 -11 9 -5 0 -8 4 -5 9 3 5 -1 12
-10 15 -22 8 -26 8 -20 -3z"/>
<path d="M12590 5275 c7 -9 16 -12 19 -8 4 4 10 11 15 16 5 4 -3 7 -19 7 -24
0 -26 -2 -15 -15z"/>
<path d="M8795 5249 c-11 -16 -1 -19 13 -3 7 8 8 14 3 14 -5 0 -13 -5 -16 -11z"/>
<path d="M8833 5240 c-1 -11 2 -18 8 -15 11 7 12 35 1 35 -4 0 -8 -9 -9 -20z"/>
<path d="M8195 5230 c3 -5 8 -10 11 -10 2 0 4 5 4 10 0 6 -5 10 -11 10 -5 0
-7 -4 -4 -10z"/>
<path d="M8600 5220 c0 -5 5 -10 11 -10 5 0 7 5 4 10 -3 6 -8 10 -11 10 -2 0
-4 -4 -4 -10z"/>
<path d="M8765 5220 c-3 -5 1 -10 10 -10 9 0 13 5 10 10 -3 6 -8 10 -10 10 -2
0 -7 -4 -10 -10z"/>
<path d="M9045 5220 c-3 -5 3 -10 14 -10 11 0 23 5 26 10 3 6 -3 10 -14 10
-11 0 -23 -4 -26 -10z"/>
<path d="M8660 5210 c0 -5 5 -10 11 -10 5 0 7 5 4 10 -3 6 -8 10 -11 10 -2 0
-4 -4 -4 -10z"/>
<path d="M8717 5199 c7 -7 15 -10 18 -7 3 3 -2 9 -12 12 -14 6 -15 5 -6 -5z"/>
<path d="M9610 5206 c0 -2 9 -6 20 -9 11 -3 18 -1 14 4 -5 9 -34 13 -34 5z"/>
<path d="M9503 5095 c-8 -19 -8 -23 0 -18 7 4 28 7 47 6 27 -1 29 0 8 4 -16 2
-28 11 -28 19 0 22 -14 16 -27 -11z"/>
<path d="M9465 5058 c-4 -13 -6 -27 -5 -33 1 -5 -4 -4 -11 3 -7 6 -20 12 -28
12 -13 -1 -13 -2 2 -11 26 -15 21 -32 -5 -18 -21 11 -22 11 -9 -4 15 -19 1
-23 -16 -6 -8 8 -14 5 -22 -10 -7 -12 -18 -21 -26 -21 -8 0 -15 -7 -15 -15 0
-8 -5 -15 -11 -15 -5 0 -7 6 -4 13 4 6 0 4 -8 -5 -8 -10 -18 -18 -23 -18 -5 0
-14 -16 -20 -35 -10 -32 -10 -35 7 -30 14 5 19 1 19 -14 0 -16 -7 -21 -27 -22
-16 -1 -31 -1 -35 0 -4 0 -5 -6 -2 -14 5 -11 -1 -15 -19 -15 -27 0 -45 -30
-31 -52 5 -8 2 -9 -9 -5 -24 9 -67 -13 -67 -33 0 -12 -11 -20 -35 -24 -30 -6
-35 -11 -35 -34 0 -18 -3 -23 -8 -14 -12 18 -58 -44 -54 -72 2 -15 0 -17 -6
-8 -7 11 -11 11 -20 0 -5 -7 -11 -17 -12 -23 -6 -27 -14 -35 -32 -35 -15 0
-19 -5 -15 -19 4 -15 0 -19 -14 -16 -11 2 -23 -4 -29 -16 -6 -10 -17 -19 -25
-19 -8 0 -15 -4 -15 -10 0 -5 -6 -10 -13 -10 -16 0 -20 -42 -5 -51 6 -4 -2
-10 -19 -13 -27 -6 -88 -60 -88 -78 0 -11 -27 -28 -36 -22 -4 2 -10 0 -14 -5
-3 -6 3 -8 15 -6 11 2 20 0 20 -5 0 -13 -23 -25 -42 -22 -12 2 -15 -2 -11 -18
4 -16 1 -20 -21 -20 -41 0 -108 -84 -82 -103 7 -6 4 -7 -7 -3 -13 4 -20 0 -24
-14 -3 -11 -12 -20 -19 -20 -8 0 -13 -3 -11 -7 1 -5 -3 -10 -8 -12 -5 -3 -14
-9 -20 -13 -5 -5 -21 -17 -34 -28 -13 -11 -21 -23 -18 -27 4 -3 0 -14 -8 -23
-15 -16 -13 -18 20 -24 34 -7 111 2 101 11 -2 2 16 25 40 50 24 24 44 50 44
55 0 12 39 48 52 48 13 0 76 68 83 90 3 10 12 17 19 14 16 -6 33 14 38 46 2
16 9 25 20 25 19 0 51 38 41 49 -3 3 2 6 13 6 10 1 30 8 44 16 14 8 17 13 7
10 -11 -3 -15 -2 -12 4 3 6 18 10 33 11 15 0 21 3 14 6 -6 2 -10 9 -7 13 3 5
13 6 22 3 11 -4 14 -3 9 5 -9 15 52 78 70 74 7 -1 15 2 19 8 3 5 -1 10 -10 10
-11 0 -7 9 15 30 17 17 25 30 19 30 -7 0 -2 9 11 20 13 11 27 20 31 20 13 0
64 51 61 61 -1 5 2 10 8 10 6 1 13 2 18 3 11 2 72 67 72 77 0 5 7 9 15 9 9 0
18 7 22 16 8 20 51 64 63 64 9 0 30 32 30 44 0 3 -7 3 -15 0 -8 -4 -15 -1 -15
7 0 7 3 9 7 6 9 -9 34 13 27 24 -3 5 2 12 10 15 9 3 13 10 10 15 -3 5 6 13 20
18 13 6 27 19 31 30 3 12 11 21 17 21 6 0 6 6 -2 15 -10 12 -9 15 7 15 23 0
26 23 8 57 l-12 24 -8 -23z m-155 -152 c0 -3 -4 -8 -10 -11 -5 -3 -10 -1 -10
4 0 6 5 11 10 11 6 0 10 -2 10 -4z m20 -36 c0 -5 -5 -10 -11 -10 -5 0 -7 5 -4
10 3 6 8 10 11 10 2 0 4 -4 4 -10z"/>
<path d="M9516 5025 c-9 -26 -7 -32 5 -12 6 10 9 21 6 23 -2 3 -7 -2 -11 -11z"/>
<path d="M11851 4966 c-7 -8 -8 -17 -3 -20 6 -3 13 1 16 10 9 23 2 28 -13 10z"/>
<path d="M9470 4945 c0 -8 4 -15 10 -15 5 0 7 7 4 15 -4 8 -8 15 -10 15 -2 0
-4 -7 -4 -15z"/>
<path d="M9427 4893 c-4 -3 -7 -11 -7 -17 0 -6 5 -5 12 2 6 6 9 14 7 17 -3 3
-9 2 -12 -2z"/>
<path d="M9420 4850 c0 -13 11 -13 30 0 12 8 11 10 -7 10 -13 0 -23 -4 -23
-10z"/>
<path d="M9390 4840 c0 -5 5 -10 10 -10 6 0 10 5 10 10 0 6 -4 10 -10 10 -5 0
-10 -4 -10 -10z"/>
<path d="M8030 4790 c-8 -5 -10 -10 -5 -10 6 0 17 5 25 10 8 5 11 10 5 10 -5
0 -17 -5 -25 -10z"/>
<path d="M12072 4660 c0 -19 2 -27 5 -17 2 9 2 25 0 35 -3 9 -5 1 -5 -18z"/>
<path d="M12630 4641 c0 -10 19 -25 25 -20 1 2 -3 10 -11 17 -8 7 -14 8 -14 3z"/>
<path d="M8560 4615 c0 -10 10 -15 26 -15 22 0 25 2 14 15 -7 8 -19 15 -26 15
-8 0 -14 -7 -14 -15z"/>
<path d="M7958 4513 c7 -3 16 -2 19 1 4 3 -2 6 -13 5 -11 0 -14 -3 -6 -6z"/>
<path d="M7917 4433 c-4 -3 -7 -11 -7 -17 0 -6 5 -5 12 2 6 6 9 14 7 17 -3 3
-9 2 -12 -2z"/>
<path d="M8440 4335 c0 -14 2 -25 4 -25 2 0 11 -3 20 -6 13 -5 13 -1 3 25 -14
37 -27 40 -27 6z"/>
<path d="M7172 4290 c-57 -12 -157 -66 -208 -113 -44 -40 -74 -98 -74 -144 0
-23 8 -14 44 48 50 85 100 134 171 170 44 21 63 24 155 23 58 0 139 -8 180
-17 92 -19 211 -31 190 -18 -29 17 -226 52 -320 56 -52 2 -114 0 -138 -5z"/>
<path d="M8475 4280 c-3 -5 -1 -10 4 -10 6 0 11 5 11 10 0 6 -2 10 -4 10 -3 0
-8 -4 -11 -10z"/>
<path d="M10320 4246 c0 -15 24 -28 34 -19 7 7 -13 33 -25 33 -5 0 -9 -6 -9
-14z"/>
<path d="M7650 4226 c0 -2 9 -6 20 -9 11 -3 18 -1 14 4 -5 9 -34 13 -34 5z"/>
<path d="M7230 4213 c-63 -22 -149 -73 -189 -112 -56 -55 -88 -108 -66 -108 8
0 12 4 9 9 -3 4 0 8 5 8 6 0 11 6 11 13 0 17 85 98 134 127 21 13 64 34 95 46
47 20 48 34 1 17z"/>
<path d="M8405 4200 c3 -5 10 -10 16 -10 5 0 9 5 9 10 0 6 -7 10 -16 10 -8 0
-12 -4 -9 -10z"/>
<path d="M13016 4179 c-43 -5 -84 -11 -90 -14 -6 -3 14 -3 44 0 30 3 97 5 149
5 52 0 92 2 90 4 -10 9 -122 12 -193 5z"/>
<path d="M7015 4140 c-10 -11 -14 -20 -8 -20 5 0 18 9 28 20 10 11 14 20 8 20
-5 0 -18 -9 -28 -20z"/>
<path d="M10240 4121 c0 -73 -6 -76 -115 -56 -84 15 -117 24 -137 37 -13 8
-42 20 -66 28 -38 12 -46 12 -72 -3 -22 -13 -29 -14 -33 -5 -4 8 -6 7 -6 -3
-1 -11 -10 -17 -28 -17 -16 0 -70 -1 -120 -1 l-93 -1 -40 -41 c-22 -23 -40
-44 -40 -48 0 -3 10 -11 23 -17 12 -6 45 -23 72 -37 30 -15 91 -32 153 -43 95
-15 109 -16 200 0 54 9 118 16 144 16 65 0 108 10 108 26 0 8 5 14 10 14 6 0
16 11 22 25 9 21 18 25 53 25 112 0 201 79 108 95 -66 12 -112 25 -118 35 -13
22 -25 8 -25 -29z"/>
<path d="M13391 4014 c127 -135 149 -210 134 -459 l-4 -80 16 45 c11 32 16 85
17 186 1 121 -1 143 -16 158 -10 10 -18 25 -18 34 0 21 -49 76 -110 123 -73
58 -78 56 -19 -7z"/>
<path d="M9290 4012 c0 -10 6 -27 14 -37 12 -17 14 -17 37 -2 21 15 19 22 -3
18 -4 0 -12 8 -18 19 -13 25 -30 26 -30 2z"/>
<path d="M7011 3867 c2 -1 13 -9 24 -17 19 -14 19 -14 6 3 -7 9 -18 17 -24 17
-6 0 -8 -1 -6 -3z"/>
<path d="M7191 3767 c-13 -21 -12 -21 5 -5 10 10 16 20 13 22 -3 3 -11 -5 -18
-17z"/>
<path d="M13576 3638 c-17 -126 -15 -157 4 -91 12 40 26 213 18 213 -3 0 -13
-55 -22 -122z"/>
<path d="M13447 3648 c7 -54 22 -85 23 -47 0 38 -11 89 -20 89 -5 0 -6 -19 -3
-42z"/>
<path d="M7805 3460 c4 -6 11 -8 16 -5 14 9 11 15 -7 15 -8 0 -12 -5 -9 -10z"/>
<path d="M12462 3450 c0 -14 2 -19 5 -12 2 6 2 18 0 25 -3 6 -5 1 -5 -13z"/>
<path d="M7605 3411 c-6 -11 9 -23 19 -14 9 9 7 23 -3 23 -6 0 -12 -4 -16 -9z"/>
<path d="M12461 3404 c0 -11 3 -14 6 -6 3 7 2 16 -1 19 -3 4 -6 -2 -5 -13z"/>
<path d="M8067 3304 c-11 -11 -8 -26 3 -19 6 3 10 1 10 -6 0 -7 3 -10 6 -6 3
3 2 13 -3 22 -5 8 -12 12 -16 9z"/>
<path d="M8580 3150 c8 -5 20 -10 25 -10 6 0 3 5 -5 10 -8 5 -19 10 -25 10 -5
0 -3 -5 5 -10z"/>
<path d="M20452 2451 c-21 -13 -12 -95 11 -99 14 -3 17 5 17 52 0 56 -4 63
-28 47z"/>
</g>
</svg>
